setup_vision = yes
government = tribal
add_government_reform = gnoll_pack
government_rank = 1
primary_culture = east_sandfang_gnoll
religion = xhazobkult
technology_group = tech_gnollish
national_focus = ADM
capital = 571

1435.6.12 = {
	monarch = {
		name = "Zokka"
		dynasty = "Devourer-of-Suns"
		birth_date = 1401.9.2
		adm = 1
		dip = 3
		mil = 5
	}
	add_ruler_personality = mage_personality
	add_ruler_modifier = {
		name = zokka_the_rule_of_zokka
		duration = -1
	}
	heir = { 
		name = "Zokka"
		monarch_name = "Zokka II"
		dynasty = "Devourer-of-Suns"
		birth_date = 1428.12.12
		death_date = 1525.1.1
		claim = 80
		adm = 1
		dip = 4
		mil = 2
	}
	add_heir_personality = careful_personality
}

1444.1.1 = {
	define_ruler_to_general = {
		fire = 1
		shock = 10
		manuever = 3
		siege = 5
	}
}