
adshaw_1_missions_s = { 
	slot = 1
	generic = no
	ai = yes 
	has_country_shield = yes
	potential = { tag = Z26 }
	
	adshaw_the_huntsman = {
		icon = mission_rb_conquer_the_highlands
		position = 1
		required_missions = { }
		
		trigger = {
			mil_power = 75
			treasury = 50
		}
		
		effect = {
			add_mil_power = -75
			add_treasury = -50
			define_general = {
				shock = 3
				fire = 2
				manuever = 6
				siege = 3
				name = "Berthold the Huntsman"
			}
		}
	}
	
	adshaw_snake_in_the_bay = {
		icon = the_hungarian_succession
		position = 2
		required_missions = {
			adshaw_the_huntsman
		}
		
		provinces_to_highlight = {
			province_id = 721
		}
		
		trigger = {
			OR = {
				Z32 = { is_subject_of = ROOT }
				AND = {
					Z32 = { is_subject = no }
					if = {
						limit = { has_leader = "Berthold the Huntsman" }
						has_spy_network_in = {
							who = Z32
							value = 30
						}
						marriage_with = Z32
					}
					else = {
						has_spy_network_in = {
							who = Z32
							value = 50
						}
						marriage_with = Z32
					}
				}
				AND = {
					Z32 = {
						exists = no
					}
					owns_core_province = 721
				}
			}
		}
		
		effect = {
			if = {
				limit = {
					Z32 = {
						exists = yes
						is_subject = no
					}
				}
				Z32 = {
					kill_ruler = yes
					define_ruler = {
						dynasty = "Adshaw"
						culture = old_alenic
						min_age = 20
						max_age = 30
						claim = 50
					}
				}
				vassalize = Z32
			}
			if = {
				limit = {
					Z32 = {
						exists = yes
						is_subject = no
					}
					has_leader = "Berthold the Huntsman"
				}
				add_spy_network_in = {
					who = Z32
					value = -30
				}
			}
			else_if = {
				limit = {
					Z32 = {
						exists = yes
						is_subject = no
					}
					NOT = {
						has_leader = "Berthold the Huntsman"
					}
				}
				add_spy_network_in = {
					who = Z32
					value = -50
				}
			}
			else = {
				add_prestige = 5
			}
		}
	}
	
	adshaw_reachspier_riots = {
		icon = mission_assassination
		position = 3
		required_missions = {
			adshaw_snake_in_the_bay
			adshaw_cold_to_the_touch
		}
		
		provinces_to_highlight = {
			province_id = 704
		}
		
		trigger = {
			OR = {
				has_spy_network_in = {
					who = Z31
					value = 30
				}
				AND = {
					Z31 = {
						exists = no
					}
					owns_core_province = 704
				}
			}
		}
		
		effect = {
			if = {
				limit = {
					Z31 = {
						exists = yes
					}
				}
				Z31 = {
					country_event = {
						id = adshaw.1
					}
				}
				add_spy_network_in = {
					who = Z31
					value = -30
				}
			}
			else = {
				add_prestige = 5
			}
		}
	}
	
	adshaw_lord_of_the_chills = {
		icon = mission_look_west
		position = 4
		required_missions = {
			adshaw_reachspier_riots
			adshaw_everwharf_incident
		}
		
		provinces_to_highlight = {
			OR = { area = west_chillsbay_area }
		}
		
		trigger = {
			owns_all_provinces = {
				area = west_chillsbay_area
			}
		}
		
		effect = {
			if = {
				limit = {
					Z30 = {
						is_subject_of = Z26
					}
				}
				Z30 = {
					every_owned_province = {
						cede_province = Z26
					}
				}
			}
			if = {
				limit = {
					Z31 = {
						is_subject_of = Z26
					}
				}
				Z31 = {
					every_owned_province = {
						cede_province = Z26
					}
				}
			}
			if = {
				limit = {
					Z32 = {
						is_subject_of = Z26
					}
				}
				Z33 = {
					every_owned_province = {
						cede_province = Z26
					}
				}
			}
			if = {
				limit = {
					Z33 = {
						is_subject_of = Z26
					}
				}
				Z33 = {
					every_owned_province = {
						cede_province = Z26
					}
				}
			}
			west_chillsbay_area = {
				add_core = ROOT
			}
			add_prestige = 15
		}
	}
	
	adshaw_chillsbay_dockyards = {
		icon = mission_retake_ceuta
		position = 5
		required_missions = {
			adshaw_lord_of_the_chills
		}
		
		provinces_to_highlight = {
			OR = { area = west_chillsbay_area }
		}
		
		trigger = {
			num_of_owned_provinces_with = {
				value = 2
				OR = {
					has_dock_building_trigger = yes
				}
				area = west_chillsbay_area
			}
		}
		
		effect = {
			add_country_modifier = {
				name = Z26_chillsbay_dockyards
				duration = 18250
			}
		}
	}
}

adshaw_1_missions_m = { 
	slot = 1
	generic = no
	ai = yes 
	has_country_shield = yes
	potential = { 
		tag = Z26
		has_country_flag = adshaw_king_of_the_reach
	}
	
	adshaw_reachfleet = {
		icon = overshadow_venice
		position = 6
		required_missions = {
			adshaw_chillsbay_dockyards
		}
		
		trigger = {
			navy_size_percentage = 1
		}
		
		effect = {
			985 = {
				add_permanent_claim = Z26
			}
			define_admiral = {
				shock = 2
				fire = 4
				manuever = 3
				siege = 4
				name = "Armand Flint"
			}
		}
	}
}

adshaw_1_missions_nc = { 
	slot = 1
	generic = no
	ai = yes 
	has_country_shield = yes
	potential = { 
		tag = Z26
		has_country_flag = adshaw_king_of_the_reach
		has_country_flag = adshaw_northern_crusade
	}
	
	adshaw_lone_spire = {
		icon = mission_magic_tower
		position = 7
		required_missions = {
			adshaw_reachfleet
		}
		
		provinces_to_highlight = {
			province_id = 985
		}
		
		trigger = {
			owns_core_province = 985
			adm_power = 100
		}
		
		effect = {
			add_adm_power = -100
			country_event = {
				id = adshaw.17
			}
			985 = {
				add_permanent_province_modifier = {
					name = Z26_mansedock
					duration = -1
				}
				if = {
					limit = {
						Z26 = {
							religion = corinite
						}
					}
					change_religion = corinite
				}
				else_if = {
					limit = {
						Z26 = {
							religion = ravelian
						}
					}
					change_religion = ravelian
				}
			}
		}
	}
	
	adshaw_first_landing = {
		icon = mission_face_off
		position = 8
		required_missions = {
			adshaw_lone_spire
		}
		
		provinces_to_highlight = {
			if = {
				limit = {
					ROOT = {
						NOT = {
							OR = {
								has_country_flag = adshaw_invade_slumber
								has_country_flag = adshaw_invade_urviksten
							}
						}
					}
				}
				OR = {
					area = elkaesals_slumber_area
					area = olavslund_area
					area = nyrford_area
					area = naugsvol_area
					area = esfjall_area
				}
			}
			else_if = {
				limit = {
					ROOT = {
						has_country_flag = adshaw_invade_slumber
					}
				}
				OR = {
					area = elkaesals_slumber_area
					area = olavslund_area
				}
			}
			else_if = {
				limit = {
					ROOT = {
						has_country_flag = adshaw_invade_urviksten
					}
				}
				OR = {
					area = nyrford_area
					area = naugsvol_area
					area = esfjall_area
				}
			}
		}
		
		trigger = {
			if = {
				limit = {
					NOT = {
						OR = {
							has_country_flag = adshaw_invade_slumber
							has_country_flag = adshaw_invade_urviksten
						}
					}
				}
				custom_trigger_tooltip = { 
					tooltip = adshaw_choose_invasion 
					has_country_flag = adshaw_null
				}
			}
			else_if = {
				limit = {
					has_country_flag = adshaw_invade_slumber
				}
				owns_all_provinces = {
					area = elkaesals_slumber_area
				}
				owns_all_provinces = {
					area = olavslund_area
				}
			}
			else_if = {
				limit = {
					has_country_flag = adshaw_invade_urviksten
				}
				owns_all_provinces = {
					area = nyrford_area
				}
				owns_all_provinces = {
					area = naugsvol_area
				}
				owns_all_provinces = {
					area = esfjall_area
				}
			}
		}
		
		effect = {
			if = {
				limit = {
					NOT = {
						OR = {
							has_country_flag = adshaw_invade_slumber
							has_country_flag = adshaw_invade_urviksten
						}
					}
				}
				custom_tooltip = adshaw_choose_invasion
			}
			else_if = {
				limit = {
					has_country_flag = adshaw_invade_slumber
				}
				nyrford_area = {
					limit = {
						NOT = { is_core = ROOT }
						NOT = { owned_by = ROOT }
					}
					add_permanent_claim = ROOT
				}
				naugsvol_area = {
					limit = {
						NOT = { is_core = ROOT }
						NOT = { owned_by = ROOT }
					}
					add_permanent_claim = ROOT
				}
				esfjall_area = {
					limit = {
						NOT = { is_core = ROOT }
						NOT = { owned_by = ROOT }
					}
					add_permanent_claim = ROOT
				}
			}
			else_if = {
				limit = {
					has_country_flag = adshaw_invade_urviksten
				}
				elkaesals_slumber_area = {
					limit = {
						NOT = { is_core = ROOT }
						NOT = { owned_by = ROOT }
					}
					add_permanent_claim = ROOT
				}
				olavslund_area = {
					limit = {
						NOT = { is_core = ROOT }
						NOT = { owned_by = ROOT }
					}
					add_permanent_claim = ROOT
				}
			}
		}
	}
	
	adshaw_taming_the_olavish = {
		icon = mission_women_prayer
		position = 9
		required_missions = {
			adshaw_first_landing
		}
		
		provinces_to_highlight = {
			continent = europe
			culture = olavish
			NOT = { owned_by = ROOT }
		}
		
		trigger = {
			owns_all_provinces  = {
				continent = europe
				culture = olavish
			}
			dip_power = 200
		}
		
		effect = {
			add_dip_power = -200
			add_accepted_culture = olavish
			custom_tooltip = adshaw_gerudian_priests
			hidden_effect = {
				every_owned_province = {
					limit = {
						culture = olavish
						has_owner_religion = no
					}
					add_province_modifier = {
						name = Z26_gerudia_missionaries
						duration = 9125
					}
				}
			}
		}
	}
	
	adshaw_falahs_hill = {
		icon = the_fountain_of_youth
		position = 10
		required_missions = {
			adshaw_taming_the_olavish
		}
		
		provinces_to_highlight = {
			province_id = 976
		}
		
		trigger = {
			owns_core_province = 976
			years_of_income = 1
			976 = {
				has_owner_religion = yes
			}
		}
		
		effect = {
			add_years_of_income = -1
			976 = {
				change_province_name = "Falahyl"
				add_province_triggered_modifier = Z26_falahni_temple
			}
			custom_tooltip = falahni_temple_tooltip
			hidden_effect = {
				if = {
					limit = {
						NOT = {
							976 = {
								has_tax_building_trigger = yes
							}
						}
					}
					add_building = temple
				}
			}
		}
	}
}

adshaw_1_missions_e = { 
	slot = 1
	generic = no
	ai = yes 
	has_country_shield = yes
	potential = { 
		tag = Z26
		has_country_flag = adshaw_empire_of_the_reach
	}
	
	adshaw_cradle_of_the_reach = {
		icon = mission_magnificent_castle
		position = 11
		required_missions = { }
		
		provinces_to_highlight = {
			province_id = 731
		}
		
		trigger = {
			years_of_income = 2
			731 = {
				development = 30
				has_tax_building_trigger = yes
				has_fort_building_trigger = yes
			}
		}
		
		effect = {
			add_years_of_income = -2
			731 = {
				add_permanent_province_modifier = {
					name = Z26_rycastle_palace
					duration = -1
				}
			}
		}
	}
	
	adshaw_an_imperial_city = {
		icon = imperial_capitals
		position = 12
		required_missions = {
			adshaw_cradle_of_the_reach
		}
		
		provinces_to_highlight = {
			province_id = 695
		}
		
		trigger = {
			695 = {
				development = 70
				OR = {
					has_building = fort_17th
					has_building = fort_18th
				}
				OR = {
					has_building = trade_depot
					has_building = stock_exchange
				}
				has_building = cathedral
			}
		}
		
		effect = {
			695 = {
				add_province_modifier = {
					name = Z26_capital_of_the_reach
					duration = -1
				}
				change_trade_goods = paper
			}
		}
	}
}

adshaw_2_missions_s = { 
	slot = 2
	generic = no
	ai = yes 
	has_country_shield = yes
	potential = { tag = Z26 }
	
	adshaw_frosty_reception = {
		icon = mission_candide_letter
		position = 1
		required_missions = { }
		
		provinces_to_highlight = {
			province_id = 706
		}
		
		trigger = {
			OR = {
				Z33 = { is_subject_of = ROOT }
				AND = {
					marriage_with = Z33
					Z33 = {
						has_opinion = {
							who = Z26
							value = 100
						}
					}
				}
				AND = {
					Z33 = {
						exists = no
					}
					owns = 706
				}
			}
		}
		
		effect = {
			if = {
				limit = {
					Z33 = {
						exists = yes
						is_subject = no
					}
				}
				Z33 = {
					define_heir = {
						claim = 75
						dynasty = "Frostwall"
						no_consort_with_heir = yes
					}
					define_consort = {
						country_of_origin = Z26
						dynasty = "Adshaw"
						culture = old_alenic
						female = yes
					}
				}
			}
			else = {
				add_prestige = 5
			}
		}
	}
	
	adshaw_cold_to_the_touch = {
		icon = mission_captured
		position = 2
		required_missions = {
			adshaw_the_huntsman
			adshaw_frosty_reception
		}
		
		provinces_to_highlight = {
			province_id = 706
		}
		
		trigger = {
			OR = {
				if = {
					limit = { has_leader = "Berthold the Huntsman" }
					has_spy_network_in = {
						who = Z33
						value = 30
					}
				}
				else = {
					has_spy_network_in = {
						who = Z33
						value = 50
					}
				}
				AND = {
					Z33 = {
						exists = no
					}
					owns_core_province = 706
				}
			}
		}
		
		effect = {
			if = {
				limit = {
					Z33 = {
						exists = yes
					}
				}
				Z33 = {
					kill_ruler = yes
					set_dynasty = ROOT
				}
				vassalize = Z33
			}
			if = {
				limit = {
					Z33 = {
						exists = yes
					}
					has_leader = "Berthold the Huntsman"
				}
				add_spy_network_in = {
					who = Z33
					value = -30
				}
			}
			else_if = {
				limit = {
					Z33 = {
						exists = yes
					}
					NOT = {
						has_leader = "Berthold the Huntsman"
					}
				}
				add_spy_network_in = {
					who = Z33
					value = -50
				}
			}
			else = {
				add_stability = 1
			}
		}
	}
	
	adshaw_everwharf_incident = {
		icon = mission_disrupt_portuguese_trade
		position = 3
		required_missions = {
			adshaw_cold_to_the_touch
			adshaw_deed_to_dinesck
		}
		
		provinces_to_highlight = {
			OR = {
				province_id = 1256
				province_id = 722
			}
		}
		
		trigger = {
			OR = {
				AND = {
					has_spy_network_in = {
						who = Z30
						value = 30
					}
					1256 = {
						light_ships_in_province = ROOT
					}
				}
				AND = {
					Z30 = {
						exists = no
					}
					owns_core_province = 722
				}
			}
		}
		
		effect = {
			if = {
				limit = {
					Z30 = {
						exists = yes
					}
				}
				1256 = {
					kill_units = {
						who = Z26
						type = light_ship
						amount = 2
					}
				}
				Z28 = {
					country_event = {
						id = adshaw.3
					}
				}
				add_spy_network_in = {
					who = Z30
					value = -30
				}
			}
			else = {
				add_prestige = 5
			}
		}
	}
	
	adshaw_an_offer = {
		icon = mission_whisper
		position = 4
		required_missions = { }
		
		trigger = {
			if = {
				limit = {
					A13 = {
						has_country_modifier = gawed_deland_council
					}
				}
				has_spy_network_in = {
					who = A13
					value = 25
				}
			}
			else = {
				has_spy_network_in = {
					who = Z30
					value = 50
				}
			}
		}
		
		effect = {
			add_truce_with = A13
			add_country_modifier = {
				name = adshaw_deland_loan
				duration = 7300
			}
			if = {
				limit = {
					A13 = {
						has_country_modifier = gawed_deland_council
					}
				}
				add_spy_network_in = {
					who = A13
					value = -25
				}
			}
			if = {
				limit = {
					A13 = {
						NOT = {
							has_country_modifier = gawed_deland_council
						}
					}
				}
				add_spy_network_in = {
					who = Z30
					value = -50
				}
			}
			hidden_effect = {
				country_event = {
					id = adshaw.5
					days = 7300
				}
			}
		}
	}
	
	adshaw_envermarck_crisis = {
		icon = mission_alone_in_the_wood
		position = 5
		required_missions = {
			adshaw_an_offer
		}
		
		provinces_to_highlight = {
			OR = {
				province_id = 703
				province_id = 724
			}
		}
		
		trigger = {
			OR = {
				AND = {
					Z26 = {
						703 = {
							infantry_in_province = 5
						}
					}
					has_spy_network_in = {
						who = Z24
						value = 35
					}
				}
				AND = {
					Z24 = {
						exists = no
					}
					owns_core_province = 724
				}
			}
		}
		
		effect = {
			if = {
				limit = {
					Z24 = {
						exists = yes
					}
				}
				Z22 = {
					country_event = {
						id = adshaw.6
					}
				}
				add_spy_network_in = {
					who = Z24
					value = -35
				}
			}
			else = {
				add_prestige = 5
			}
		}
	}
	
	adshaw_serpents_maw = {
		icon = mission_advance_to_the_dnieper
		position = 6
		required_missions = {
			adshaw_envermarck_crisis
			adshaw_reckoning
		}
		
		provinces_to_highlight = {
			OR = {
				area = serpentshead_area 
			}
		}
		
		trigger = {
			owns_all_provinces = {
				area = serpentshead_area 
			}
		}
		
		effect = {
			add_prestige = 15
		}
	}
}

adshaw_2_missions_nc = { 
	slot = 2
	generic = no
	ai = yes 
	has_country_shield = yes
	potential = { 
		tag = Z26
		has_country_flag = adshaw_king_of_the_reach
		has_country_flag = adshaw_northern_crusade
	}
	
	adshaw_knights_of_the_serpent = {
		icon = moravian_arms
		position = 7
		required_missions = {
			adshaw_serpents_maw
		}
		
		provinces_to_highlight = {
			province_id = 698
		}
		
		trigger = {
			mil_power = 100
			698 = {
				has_fort_building_trigger = yes
				has_manpower_building_trigger = yes
			}
		}
		
		effect = {
			add_mil_power = -100
			hidden_effect = {
				set_country_flag = empowered_serpent_knights
			}
			hidden_effect = { 1804 = { add_province_triggered_modifier = merc_serpent_knights_free } }
			frostbridges_area = {
				limit = {
					NOT = { is_core = ROOT }
					NOT = { owned_by = ROOT }
				}
				add_permanent_claim = ROOT
			}
			custom_tooltip = sk_empowered_mission
		}
	}
	
	adshaw_fording_the_pass = {
		icon = mission_fleet_arrival
		position = 8
		required_missions = {
			adshaw_knights_of_the_serpent
		}
		
		provinces_to_highlight = {
			OR = {
				area = frostbridges_area
			}
		}
		
		trigger = {
			owns_all_provinces = {
				area = frostbridges_area
			}
		}
		
		effect = {
			bjarnland_area  = {
				limit = {
					NOT = { is_core = ROOT }
					NOT = { owned_by = ROOT }
				}
				add_permanent_claim = ROOT
			}
			alptborg_area  = {
				limit = {
					NOT = { is_core = ROOT }
					NOT = { owned_by = ROOT }
				}
				add_permanent_claim = ROOT
			}
			revrland_area  = {
				limit = {
					NOT = { is_core = ROOT }
					NOT = { owned_by = ROOT }
				}
				add_permanent_claim = ROOT
			}
			953 = {
				add_building_construction = {
					building = fort_15th
					speed = 0.5
					cost = 0
				}
				add_permanent_province_modifier = {
					name = Z26_fuglgard
					duration = -1
				}
			}
		}
	}
	
	adshaw_the_bear_is_broken = {
		icon = mission_mounted_battle
		position = 9
		required_missions = {
			adshaw_fording_the_pass
		}
		
		provinces_to_highlight = {
			OR = {
				area = bjarnland_area
				area = alptborg_area
				area = revrland_area
			}
		}
		
		trigger = {
			owns_all_provinces = {
				area = bjarnland_area
			}
			owns_all_provinces = {
				area = alptborg_area
			}
			owns_all_provinces = {
				area = revrland_area
			}
		}
		
		effect = {
			add_prestige = 10
			Z08 = {
				set_government_rank = 1
			}
			custom_tooltip = adshaw_gerudian_priests
			hidden_effect = {
				every_owned_province = {
					limit = {
						OR = {
							culture = west_dalr
							culture = east_dalr
						}
						has_owner_religion = no
					}
					add_province_modifier = {
						name = Z26_gerudia_missionaries
						duration = 9125
					}
				}
			}
		}
	}
	
	adshaw_regent_of_gerudia = {
		icon = mission_swear_fealty_knight
		position = 10
		required_missions = {
			adshaw_the_bear_is_broken
			adshaw_taming_the_olavish
		}
		
		provinces_to_highlight = {
			OR = {
				area = bjarnland_area
				area = alptborg_area 
				area = revrland_area
				area = elkaesals_slumber_area
				area = olavslund_area
				area = nyrford_area
				area = naugsvol_area
				area = esfjall_area
				area = frostbridges_area
				area = giants_manse_area 
			}
			NOT = {
				AND = {
					owned_by = Z26
					has_owner_religion = yes
				}
			}
		}
		
		trigger = { #If you can find a way to condense this be my guest, after several different attempts at doing this with scopes and shit I gave up and did this.
			bjarnland_area = {
				owned_by = Z26
				has_owner_religion = yes
				type = all
			}
			alptborg_area = {
				owned_by = Z26
				has_owner_religion = yes
				type = all
			}
			revrland_area = {
				owned_by = Z26
				has_owner_religion = yes
				type = all
			}
			elkaesals_slumber_area = {
				owned_by = Z26
				has_owner_religion = yes
				type = all
			}
			olavslund_area = {
				owned_by = Z26
				has_owner_religion = yes
				type = all
			}
			nyrford_area = {
				owned_by = Z26
				has_owner_religion = yes
				type = all
			}
			esfjall_area = {
				owned_by = Z26
				has_owner_religion = yes
				type = all
			}
			naugsvol_area = {
				owned_by = Z26
				has_owner_religion = yes
				type = all
			}
			giants_manse_area = {
				owned_by = Z26
				has_owner_religion = yes
				type = all
			}
		}
		
		effect = {
			Z26 = {
				every_known_country = {
					limit = {
						religion = skaldhyrric_faith
					}
					country_event = {
						id = adshaw.18
					}
				}
			}
		}
	}
}

adshaw_2_missions_nce = { 
	slot = 2
	generic = no
	ai = yes 
	has_country_shield = yes
	potential = { 
		tag = Z26
		has_country_flag = adshaw_empire_of_the_reach
		has_country_flag = adshaw_northern_crusade
	}
	
	adshaw_silver_palace = {
		icon = austria_prospers
		position = 11
		required_missions = {
			adshaw_falahs_hill
			adshaw_regent_of_gerudia
		}
		
		provinces_to_highlight = {
			province_id = 981
		}
		
		trigger = {
			years_of_income = 2
			981 = {
				development = 20
				has_trade_building_trigger = yes
				has_tax_building_trigger = yes
			}
		}
		
		effect = {
			add_years_of_income = -2
			981 = {
				add_permanent_province_modifier = { #Is not mispelled
					name = Z26_silferhall
					duration = -1
				}
			}
		}
	}
	
	adshaw_port_of_avnkaup = {
		icon = the_great_city_of_buda
		position = 12
		required_missions = {
			adshaw_silver_palace
		}
		
		provinces_to_highlight = {
			province_id = 978
		}
		
		trigger = {
			978 = {
				development = 35
				has_trade_building_trigger = yes
				has_production_building_trigger = yes
			}
		}
		
		effect = {
			978 = {
				add_province_modifier = {
					name = Z26_jewel_of_the_black_reach
					duration = -1
				}
				add_center_of_trade_level = 1
			}
		}
	}
}

adshaw_3_missions_s = { 
	slot = 3
	generic = no
	ai = yes 
	has_country_shield = yes
	potential = { tag = Z26 }
	
	adshaw_viper_of_rycastle = {
		icon = mission_thinking_king
		position = 1
		required_missions = { }
		
		trigger = {
			OR = {
				AND = {
					has_spy_network_in = {
						who = Z28
						value = 30
					}
					has_spy_network_in = {
						who = Z22
						value = 30
					}
				}
				AND = {
					has_spy_network_in = {
						who = Z28
						value = 50
					}
					Z22 = { exists = no }
				}
				AND = {
					has_spy_network_in = {
						who = Z22
						value = 50
					}
					Z28 = { exists = no }
				}
				AND = {
					Z28 = { exists = no }
					Z22 = { exists = no }
				}
			}
		}
		
		effect = {
			if = {
				limit = {
					Z22 = {
						exists = yes
					}
					Z28 = {
						exists = yes
					}
				}
				add_spy_network_in = {
					who = Z28
					value = -30
				}
				add_spy_network_in = {
					who = Z22
					value = -30
				}
				western_alenic_reach = {
					add_claim = Z26
				}
			}
			else_if = {
				limit = {
					Z22 = {
						exists = yes
					}
					Z28 = {
						exists = no
					}
				}
				add_spy_network_in = {
					who = Z22
					value = -50
				}
				western_alenic_reach = {
					add_claim = Z26
				}
			}
			else_if = {
				limit = {
					Z22 = {
						exists = no
					}
					Z28 = {
						exists = yes
					}
				}
				add_spy_network_in = {
					who = Z28
					value = -50
				}
				western_alenic_reach = {
					add_claim = Z26
				}
			}
			else_if = {
				limit = {
					Z22 = {
						exists = no
					}
					Z28 = {
						exists = no
					}
				}
				western_alenic_reach = {
					add_claim = Z26
				}
			}
		}
	}
	
	adshaw_deed_to_dinesck = {
		icon = protect_against_the_turks
		position = 2
		required_missions = {
			adshaw_viper_of_rycastle
		}
		
		provinces_to_highlight = {
			province_id = 752
		}
		
		trigger = {
			OR = {
				has_spy_network_in = {
					who = Z25
					value = 30
				}
				AND = {
					Z25 = {
						exists = no
					}
					owns_core_province = 752
				}
			}
		}
		
		effect = {
			if = {
				limit = {
					Z25 = {
						exists = yes
					}
				}
				Z28 = {
					country_event = {
						id = adshaw.7
					}
				}
				add_spy_network_in = {
					who = Z25
					value = -30
				}
			}
			else = {
				add_prestige = 5
			}
		}
	}
	
	adshaw_battle_for_bayvic = {
		icon = develop_konigsberg
		position = 3
		required_missions = {
			adshaw_deed_to_dinesck
		}
		
		provinces_to_highlight = {
			province_id = 723
		}
		
		trigger = {
			OR = {
				AND = {
					Z28 = {
						exists = no
					}
				owns_core_province = 723
				}
				defensive_war_with = Z28
				offensive_war_with = Z28
			}
		}
		
		effect = {
			if = {
				limit = {
					Z28 = {
						exists = yes
					}
				}
				add_country_modifier = {
					name = adshaw_battle_for_bayvic
					duration = 3650
				}
			}
			else = {
				add_prestige = 15
			}
		}
	}
	
	adshaw_burning_the_vic = {
		icon = mission_burning_castle
		position = 4
		required_missions = {
			adshaw_battle_for_bayvic
		}
		
		provinces_to_highlight = {
			province_id = 723
		}
		
		trigger = {
			owns = 723
		}
		
		effect = {
			723 = {
				add_base_tax = -5
				add_base_production = -5
				add_base_manpower = -5
				add_devastation = 100
				change_trade_goods = fish
				add_center_of_trade_level = -3
				hidden_effect = {
					remove_building = fort_15th
					remove_building = fort_16th
					remove_building = fort_17th
					remove_building = fort_18th
				}
			}
			731 = {
				add_base_tax = 3
				add_base_production = 3
				add_base_manpower = 3
				center_of_trade = 1
			}
		}
	}
	
	adshaw_heart_of_the_reach = {
		icon = mission_city_prosperity
		position = 6
		required_missions = {
			adshaw_burning_the_vic
			adshaw_envermarck_crisis
		}
		
		provinces_to_highlight = {
			OR = {
				area = northern_greatwoods_area 
				area = dinesck_area 
			}
		}
		
		trigger = {
			owns_all_provinces = {
				area = dinesck_area 
			}
			owns_all_provinces = {
				area = northern_greatwoods_area
			}
		}
		
		effect = {
			add_stability = 1
		}
	}
	
	adshaw_return_of_the_king = {
		icon = kingdom_of_lombardy
		position = 7
		required_missions = {
			adshaw_serpents_maw
			adshaw_heart_of_the_reach
			adshaw_royal_capital
		}
		
		provinces_to_highlight = {
			OR = {
				province_group = western_alenic_reach 
			}
		}
		
		trigger = {
			owns_all_provinces = {
				province_group = western_alenic_reach 
			}
		}
		
		effect = {
			set_government_rank = 2
			add_country_modifier = {
				name = adshaw_return_of_the_king_m
				duration = 18250
			}
			western_alenic_reach = {
				limit = {
					NOT = { is_core = ROOT }
				}
				add_core = ROOT
			}
			coddorran_heights_area = {
				limit = {
					NOT = { is_core = ROOT }
					NOT = { owned_by = ROOT }
				}
				add_permanent_claim = ROOT
			}
			hidden_effect = {
				set_country_flag = adshaw_king_of_the_reach
				country_event = {
					id = adshaw.14
				}
			}
		}
	}
}

adshaw_3_missions_m = { 
	slot = 3
	generic = no
	ai = yes 
	has_country_shield = yes
	potential = { 
		tag = Z26
		has_country_flag = adshaw_king_of_the_reach
	}
	
	adshaw_storming_the_heights = {
		icon = mission_retake_ceuta
		position = 8
		required_missions = {
			adshaw_return_of_the_king
		}
		
		provinces_to_highlight = {
			OR = {
				area = coddorran_heights_area
			}
		}
		
		trigger = {
			owns_all_provinces = {
				area = coddorran_heights_area
			}
		}
		
		effect = {
			country_event = {
				id = adshaw.19
			}
			storm_isles_area  = {
				limit = {
					NOT = { is_core = ROOT }
					NOT = { owned_by = ROOT }
				}
				add_permanent_claim = ROOT
			}
		}
	}
	
	adshaw_serpents_swamp = {
		icon = mission_rb_conquer_wales
		position = 9
		required_missions = {
			adshaw_storming_the_heights
			adshaw_the_death_adders
		}
		
		provinces_to_highlight = {
			OR = {
				area = westmoor_proper_area 
				area = moorhills_area 
				area = beronmoor_area 
			}
		}
		
		trigger = {
			OR = {
				has_spy_network_in = {
					who = A13
					value = 75
				}
				AND = {
					westmoor_proper_area = {
						country_or_non_sovereign_subject_holds = ROOT
					}
					moorhills_area = {
						country_or_non_sovereign_subject_holds = ROOT
					}
					beronmoor_area = {
						country_or_non_sovereign_subject_holds = ROOT
					}
				}
			}
		}
		
		effect = {
			if = {
				limit = {
					A24 = {
						exists = yes
						is_subject_of = A13
					}
				}
				add_spy_network_in = {
					who = A13
					value = -75
				}
				A24 = {
					add_liberty_desire = 45
				}
			}
			else_if = {
				limit = {
					A24 = { exists = no }
				}
				add_spy_network_in = {
					who = A13
					value = -75
				}
				custom_tooltip = adshaw_moorman_agitation
				hidden_effect = {
					A13 = {
						every_owned_province = {
							limit = {
								culture = moorman
							}
							add_nationalism = 25
							add_unrest = 15
						}
					}
				}
			}
		}
	}
	
	adshaw_war_in_the_moors = {
		icon = mission_rb_unite_the_clans
		position = 10
		required_missions = {
			adshaw_serpents_swamp
		}
		
		trigger = {
			if = {
				limit = {
					A24 = { exists = no }
				}
				has_spawned_supported_rebels = A13
			}
			else_if = {
				limit = {
					A24 = {
						exists = yes 
						is_subject = yes
					}
				}
				OR = {
					is_supporting_independence_of = A24
					A24 = { is_subject_of = ROOT }
				}
			}
			else_if = {
				limit = {
					A24 = {
						exists = yes
						is_subject = no
					}
				}
				alliance_with = A24
			}
		}
		
		effect = {
			westmoor_proper_area = {
				limit = {
					NOT = { is_core = ROOT }
					NOT = { owned_by = ROOT }
				}
				add_permanent_claim = ROOT
			}
			moorhills_area = {
				limit = {
					NOT = { is_core = ROOT }
					NOT = { owned_by = ROOT }
				}
				add_permanent_claim = ROOT
			}
			beronmoor_area = {
				limit = {
					NOT = { is_core = ROOT }
					NOT = { owned_by = ROOT }
				}
				add_permanent_claim = ROOT
			}
		}
	}
	
	adshaw_freedom_in_the_fens = {
		icon = mission_rb_conquer_the_isles
		position = 11
		required_missions = {
			adshaw_war_in_the_moors
		}
		
		provinces_to_highlight = {
			OR = {
				area = westmoor_proper_area 
				area = moorhills_area 
				area = beronmoor_area 
			}
		}
		
		trigger = {
			OR = {
				AND = {
					owns_all_provinces = {
						area = westmoor_proper_area
					}
					owns_all_provinces = {
						area = moorhills_area
					}
					owns_all_provinces = {
						area = beronmoor_area
					}
				}
				A24 = {
					exists = yes
					is_subject = no
					is_at_war = no
					alliance_with = Z26
				}
			}
		}
		
		effect = {
			if = {
				limit = {
					A24 = { exists = no }
				}
				westmoor_proper_area = {
					add_nationalism = -10
				}
				moorhills_area = {
					add_nationalism = -10
				}
				beronmoor_area = {
					add_nationalism = -10
				}
			}
			else_if = {
				limit = {
					A24 = { exists = yes }
				}
				A24 = {
					country_event = {
						id = adshaw.20
					}
				}
			}
			westmounts_area  = {
				limit = {
					NOT = { is_core = ROOT }
					NOT = { owned_by = ROOT }
				}
				add_permanent_claim = ROOT
			}
		}
	}
	
	adshaw_restore_clan_wight = {
		icon = mission_rb_control_electors
		position = 12
		required_missions = {
			adshaw_freedom_in_the_fens
		}
		
		provinces_to_highlight = {
			area = westmounts_area
		}
		
		trigger = {
			owns_all_provinces = {
				area = westmounts_area
			}
		}
		
		effect = {
			westmounts_area = {
				change_culture = moorman
				add_nationalism = -10
			}
			add_accepted_culture = moorman
			340 = {
				add_base_tax = 2
				add_base_production = 2
				add_base_manpower = 2
			}
		}
	}
}

adshaw_3_missions_e = { 
	slot = 3
	generic = no
	ai = yes 
	has_country_shield = yes
	potential = { 
		tag = Z26
		has_country_flag = adshaw_empire_of_the_reach
	}
	
	adshaw_high_clans = {
		icon = mission_rb_rein_in_the_highland_clans
		position = 13
		required_missions = {
			adshaw_restore_clan_wight
		}
		
		provinces_to_highlight = {
			OR = {
				province_id = 340
				province_id = 192
				province_id = 201
			}
		}
		
		trigger = {
			340 = {
				development = 25
			}
			192 = {
				development = 25
			}
			201 = {
				development = 25
			}
		}
		
		effect = {
			340 = {
				add_permanent_province_modifier = {
					name = Z26_high_clan_seat
					duration = -1
				}
			}
			192 = {
				add_permanent_province_modifier = {
					name = Z26_high_clan_seat
					duration = -1
				}
			}
			201 = {
				add_permanent_province_modifier = {
					name = Z26_high_clan_seat
					duration = -1
				}
			}
			westmoor_proper_area = {
				add_permanent_province_modifier = {
					name = Z26_clan_council
					duration = -1
				}
			}
			moorhills_area = {
				add_permanent_province_modifier = {
					name = Z26_clan_council
					duration = -1
				}
			}
			beronmoor_area = {
				add_permanent_province_modifier = {
					name = Z26_clan_council
					duration = -1
				}
			}
			westmounts_area = {
				add_permanent_province_modifier = {
					name = Z26_clan_council
					duration = -1
				}
			}
			hidden_effect = {
				set_global_flag = Z26_westmoors_high_clans
			}
		}
	}
	
	adshaw_scavengers_in_the_ruins = {
		icon = mission_ghost_town
		position = 15
		required_missions = { }
		
		provinces_to_highlight = {
			province_id = 723
		}
		
		trigger = {
			OR = {
				treasury = 5000
				years_of_income = 5
			}
			723 = {
				NOT = {
					devastation = 10
				}
			}
		}
		
		effect = {
			largest_increase_of_goblin_tolerance_effect = yes
			if = {
				limit = {
					years_of_income = 5
					NOT = { treasury = 5000 }
				}
				add_years_of_income = -5
			}
			else_if = {
				limit = {
					treasury = 5000
				}
				add_treasury = -5000
			}
			hidden_effect = {
				largest_increase_of_goblin_tolerance_effect = yes
			}
			if = {
				limit = {
					NOT = {
						accepted_culture = city_goblin
					}
				}
				add_accepted_culture = city_goblin
			}
			723 = {
				if = {
					limit = {
						723 = {
							NOT = {
								culture = city_goblin
							}
						}
					}
					change_culture = city_goblin
					change_province_name = "Bayvek"
				}
				if = {
					limit = {
						723 = {
							has_owner_religion = no
						}
					}
					change_religion = ROOT
				}
				add_base_tax = 5
				add_base_production = 5
				add_base_manpower = 5
				add_center_of_trade_level = 1
			}
		}
	}
}

adshaw_4_missions_s = { 
	slot = 4
	generic = no
	ai = yes 
	has_country_shield = yes
	potential = { tag = Z26 }
	
	adshaw_rycastle_renovations = {
		icon = mission_sinister_castle
		position = 1
		required_missions = { }
		
		provinces_to_highlight = {
			province_id = 731
		}
		
		trigger = {
			manpower = 3
			treasury = 50
		}
		
		effect = {
			add_manpower = -3
			add_treasury = -50
			731 = {
				add_base_tax = 2
				add_base_production = 2
				add_base_manpower = 2
			}
		}
	}
	
	adshaw_supply_the_woodsmen = {
		icon = mission_rb_import_potatoes
		position = 2
		required_missions = {
			adshaw_rycastle_renovations
		}
		
		trigger = {
			num_of_owned_provinces_with = {
				value = 3
				has_production_building_trigger = yes
				has_terrain = forest
				province_group = western_alenic_reach
			}
		}
		
		effect = {
			custom_tooltip = woodsman_depot
			hidden_effect = {
				every_owned_province = {
					limit = {
						province_group = western_alenic_reach
						has_production_building_trigger = yes
						has_terrain = forest
					}
					add_province_modifier = {
						name = adshaw_woodsman_depot
						duration = 9125
					}
				}
			}
		}
	}
	
	adshaw_timber_barons = {
		icon = reformatio_sigismundi
		position = 3
		required_missions = {
			adshaw_supply_the_woodsmen
		}
		
		trigger = {
			estate_influence = {
				estate = estate_burghers
				influence = 30
			}
			estate_loyalty = {
				estate = estate_burghers
				loyalty = 60
			}
		}
		
		effect = {
			hidden_effect = {
				every_owned_province = {
					limit = {
						province_group = western_alenic_reach
						has_terrain = forest
					}
					add_province_modifier = {
						name = Z26_timber_barons
						duration = -1
					}
				}
			}
			add_estate_influence_modifier = {
				estate = estate_burghers
				desc = ADSHAW_TIMBER_BARONIES
				influence = 20
				duration = -1
			}
			add_estate_loyalty = {
				estate = estate_burghers
				loyalty = 20
			}
			add_estate_loyalty = {
				estate = estate_nobles
				loyalty = -10
			}
			custom_tooltip = timber_baron_tooltip
		}
	}
	
	adshaw_reckoning = {
		icon = mission_destroyed_city
		position = 5
		required_missions = {
			adshaw_burning_the_vic
		}
		
		provinces_to_highlight = {
			OR = {
				province_id = 695
				province_id = 696
			}
		}
		
		trigger = {
			owns = 696
			owns_core_province = 695
		}
		
		effect = {
			696 = {
				change_province_name = "Ashenhyth"
				add_base_tax = -6
				add_base_production = -6
				add_base_manpower = -6
				add_devastation = 100
				change_trade_goods = fish
				add_center_of_trade_level = -3
				change_culture = blue_reachman
				hidden_effect = {
					remove_building = fort_15th
					remove_building = fort_16th
					remove_building = fort_17th
					remove_building = fort_18th
				}
			}
			695 = {
				add_base_tax = 4
				add_base_production = 4
				add_base_manpower = 4
				center_of_trade = 2
				change_trade_goods = cloth
			}
		}
	}
	
	adshaw_royal_capital = {
		icon = public_works
		position = 6
		required_missions = {
			adshaw_reckoning
		}
		
		provinces_to_highlight = {
			province_id = 695
		}
		
		trigger = {
			695 = {
				development = 35
				has_tax_building_trigger = yes
				has_trade_building_trigger = yes
			}
		}
		
		effect = {
			695 = {
				move_capital_effect = yes
				change_province_name = "Ryganced"
				add_center_of_trade_level = 1
				change_culture = old_alenic
				add_province_modifier = {
					name = Z26_royal_capital
					duration = 3650
				}
			}
		}
	}
}

adshaw_4_missions_m = { 
	slot = 4
	generic = no
	ai = yes 
	has_country_shield = yes
	potential = { 
		tag = Z26
		has_country_flag = adshaw_king_of_the_reach
	}
	
	adshaw_loose_ends = {
		icon = mission_diplomacy_missive
		position = 7
		required_missions = {
			adshaw_royal_capital
		}
		
		trigger = {
			if = {
				limit = {
					has_country_flag = deland_debt_event
				}
				dip_power = 250
				mil_power = 250
				prestige = 50
			}
			else_if = {
				limit = {
					NOT = {
						has_country_flag = deland_debt_event
					}
				}
				adm_power = 150
				mil_power = 150
			}
		}
		
		effect = {
			add_years_of_income = 5
			if = {
				limit = {
					has_country_flag = deland_debt_event
				}
				add_dip_power = -250
				add_mil_power = -250
				add_prestige = -15
			}
			if = {
				limit = {
					695 = {
						has_province_modifier = Z26_deland_fief
					}
				}
				695 = {
					remove_province_modifier = Z26_deland_fief
				}
				add_years_of_income = 2
			}
			else_if = {
				limit = {
					NOT = {
						has_country_flag = deland_debt_event
					}
				}
				add_adm_power = -150
				add_mil_power = -150
				custom_tooltip = adshaw_kill_derek
				hidden_effect = {
					set_country_flag = derek_deland_killed
				}
			}
		}
	}
	
	adshaw_the_death_adders = {
		icon = mission_shady_encounter
		position = 8
		required_missions = {
			adshaw_loose_ends
		}
		
		trigger = {
			dip_power = 200
			adm_power = 200
			treasury = 100
		}
		
		effect = {
			add_dip_power = -200
			add_adm_power = -200
			add_treasury = -100
			add_country_modifier = {
				name = Z26_death_adders
				duration = -1
			}
		}
	}
	
	adshaw_tempting_the_wolf = {
		icon = mission_alone_in_the_forest
		position = 9
		required_missions = {
			adshaw_the_death_adders
		}
		
		provinces_to_highlight = {
			OR = {
				area = alenvord_area 
				area = balvord_area 
				area = jonsway_area 
			}
		}
		
		trigger = {
			has_spy_network_in = {
				who = A13
				value = 75
			}
		}
		
		effect = {
			add_spy_network_in = {
				who = A13
				value = -75
			}
			custom_tooltip = adshaw_greatmarcher_agitation
			hidden_effect = {
				A13 = {
					every_owned_province = {
						limit = {
							culture = old_alenic
						}
						add_nationalism = 25
						add_unrest = 15
					}
				}
			}
		}
	}
	
	adshaw_trouble_in_the_dens = {
		icon = mission_torch_fire
		position = 10
		required_missions = {
			adshaw_tempting_the_wolf
		}
		
		trigger = {
			OR = {
				has_spawned_supported_rebels = A13
				A50 = {
					exists = yes
					OR = {
						is_subject = no
						is_subject_of = ROOT
					}
				}
			}
		}
		
		effect = {
			alenvord_area = {
				limit = {
					NOT = { is_core = ROOT }
					NOT = { owned_by = ROOT }
				}
				add_permanent_claim = ROOT
			}
			balvord_area = {
				limit = {
					NOT = { is_core = ROOT }
					NOT = { owned_by = ROOT }
				}
				add_permanent_claim = ROOT
			}
			jonsway_area = {
				limit = {
					NOT = { is_core = ROOT }
					NOT = { owned_by = ROOT }
				}
				add_permanent_claim = ROOT
			}
		}
	}
	
	adshaw_a_free_wolf_howls = {
		icon = mission_forest_pilgrim
		position = 11
		required_missions = {
			adshaw_trouble_in_the_dens
		}
		
		provinces_to_highlight = {
			OR = {
				area = alenvord_area 
				area = balvord_area 
				area = jonsway_area 
			}
		}
		
		trigger = {
			OR = {
				AND = {
					owns_all_provinces = {
						area = alenvord_area
					}
					owns_all_provinces = {
						area = balvord_area
					}
					owns_all_provinces = {
						area = jonsway_area
					}
				}
				A50 = {
					exists = yes
					is_subject = no
					is_at_war = no
					alliance_with = Z26
				}
			}
		}
		
		effect = {
			if = {
				limit = {
					A50 = { exists = no }
				}
				alenvord_area = {
					add_nationalism = -10
				}
				balvord_area = {
					add_nationalism = -10
				}
				jonsway_area = {
					add_nationalism = -10
				}
			}
			else_if = {
				limit = {
					A50 = { exists = yes }
				}
				A50 = {
					country_event = {
						id = adshaw.20
					}
				}
			}
			gawed_area = {
				limit = {
					NOT = { is_core = ROOT }
					NOT = { owned_by = ROOT }
				}
				add_permanent_claim = ROOT
			}
		}
	}
	
	adshaw_gaweton_falls = {
		icon = mission_horse_siege
		position = 12
		required_missions = {
			adshaw_a_free_wolf_howls
			adshaw_freedom_in_the_fens
		}
		
		provinces_to_highlight = {
			OR = {
				area = gawed_area
			}
		}
		
		trigger = {
			OR = {
				owns = 221
				221 = {
					devastation = 100
				}
			}
		}
		
		effect = {
			A13 = {
				release_all_subjects = yes
				release = A51
				release = A52
				release = A70
				release = A71
				release = A65
				release = A66
				release = A07
				if = {
					limit = {
						owns = 66
						owns = 63
					}
					hidden_effect = {
						66 = {
							add_core = Z39
						}
						63 = {
							add_core = Z39
						}
					}
					release = Z39
				}
				set_government_rank = 1
			}
			add_prestige = 20
			custom_tooltip = adshaw_gawed_burns
			hidden_effect = {
				every_owned_province = {
					limit = {
						area = gawed_area
					}
					change_culture = ROOT
					change_religion = ROOT
					add_base_tax = -1
					add_base_production = -1
					add_base_manpower = -1
					add_devastation = 50
				}
				221 = {
					add_devastation = 100
					add_base_tax = -2
					add_base_production = -2
					add_base_manpower = -2
				}
			}
		}
	}
	
	adshaw_empire_of_the_reach_m = {
		icon = mission_sweat_fealty
		position = 13
		required_missions = {
			adshaw_restore_clan_wight
			adshaw_gaweton_falls
			adshaw_the_greater_reach
		}
		
		provinces_to_highlight = {
			OR = {
				area = alenvord_area
				area = balvord_area
				area = jonsway_area
				area = westmoor_proper_area
				area = beronmoor_area
				area = moorhills_area
			}
		}
		
		trigger = {
			owns_all_provinces = {
				area = alenvord_area
			}
			owns_all_provinces = {
				area = balvord_area
			}
			owns_all_provinces = {
				area = jonsway_area
			}
			owns_all_provinces = {
				area = westmoor_proper_area
			}
			owns_all_provinces = {
				area = beronmoor_area
			}
			owns_all_provinces = {
				area = moorhills_area
			}
			A50 = {
				exists = no
			}
			A24 = {
				exists = no
			}
			prestige = 100
		}
		
		effect = {
			override_country_name = THE_REACH
			set_government_rank = 3
			custom_tooltip = adshaw_cultural_revolution
			hidden_effect = {
				set_country_flag = adshaw_empire_of_the_reach
				remove_accepted_culture = blue_reachman
				remove_accepted_culture = white_reachman
				remove_accepted_culture = olavish
				remove_accepted_culture = moorman
				remove_accepted_culture = west_dalr
				remove_accepted_culture = east_dalr
				country_event = {
					id = adshaw.14
				}
				change_primary_culture = green_reachman
				if = {
					limit = {
						ruler_culture = old_alenic
					}
					set_ruler_culture = green_reachman
				}
				if = {
					limit = {
						consort_culture = old_alenic
					}
					set_consort_culture = green_reachman
				}
				if = {
					limit = {
						heir_culture = old_alenic
					}
					set_heir_culture = green_reachman
				}
				every_owned_province = {
					limit = {
						culture = old_alenic
					}
					change_culture = green_reachman
				}
				every_owned_province = {
					limit = {
						culture = blue_reachman
					}
					change_culture = blue_reachman_r
				}
				every_owned_province = {
					limit = {
						culture = white_reachman
					}
					change_culture = white_reachman_r
				}
				every_owned_province = {
					limit = {
						culture = moorman
					}
					change_culture = moorman_r
				}
				every_owned_province = {
					limit = {
						culture_group = gerudian
						has_owner_religion = yes
					}
					change_culture = black_reachman
				}
			}
		}
	}
}

adshaw_4_missions_e = { 
	slot = 4
	generic = no
	ai = yes 
	has_country_shield = yes
	potential = { 
		tag = Z26
		has_country_flag = adshaw_empire_of_the_reach
	}
	
	adshaw_settling_the_ashes = {
		icon = mission_sunset
		position = 14
		required_missions = {
			adshaw_empire_of_the_reach_m
		}
		
		provinces_to_highlight = {
			province_id = 696
		}
		
		trigger = {
			OR = {
				treasury = 3000
				years_of_income = 3
			}
			696 = {
				NOT = {
					devastation = 10
				}
			}
		}
		
		effect = {
			if = {
				limit = {
					years_of_income = 5
					NOT = { treasury = 3000 }
				}
				add_years_of_income = -3
			}
			else = {
				add_treasury = -3000
			}
			696 = {
				add_base_tax = 3
				add_base_production = 3
				add_base_manpower = 3
				change_trade_goods = cloth
			}
		}
	}
	
	adshaw_ashen_arsenal = {
		icon = the_london_steelyard
		position = 15
		required_missions = {
			adshaw_settling_the_ashes
		}
		
		provinces_to_highlight = {
			province_id = 696
		}
		
		trigger = {
			696 = {
				development = 45
				has_building = drydock 
				has_shipyard_building_trigger = yes
			}
		}
		
		effect = {
			696 = {
				add_permanent_province_modifier = {
					name = Z26_ashen_arsenal
					duration = -1
				}
			}
		}
	}
	
	adshaw_welcome_to_the_reach = {
		icon = mission_green_village
		position = 16
		required_missions = {
			adshaw_scavengers_in_the_ruins
			adshaw_ashen_arsenal
			adshaw_city_by_the_river
		}
		
		trigger = {
			OR = {
				years_of_income = 10
				treasury = 7500
			}
			adm_power = 250
			dip_power = 250
			mil_power = 250
		}
		
		effect = {
			if = {
				limit = {
					years_of_income = 10
					NOT = { treasury = 7500 }
				}
				add_years_of_income = -10
			}
			else = {
				add_treasury = -7500
			}
			add_adm_power = -250
			add_dip_power = -250
			add_mil_power = -250
			add_country_modifier = {
				name = Z26_immigration_program
				duration = 3650
			}
			custom_tooltip = adshaw_reach_immigration
			hidden_effect = {
				country_event = {
					id = adshaw.23
					days = 730
				}
				country_event = {
					id = adshaw.24
					days = 1460
				}
				country_event = {
					id = adshaw.25
					days = 2190
				}
				country_event = {
					id = adshaw.26
					days = 2920
				}
				country_event = {
					id = adshaw.27
					days = 3650
				}
				if = {
					limit = {
						200 = {
							has_province_modifier = Z26_axzo_vurte
						}
					}
					country_event = {
						id = adshaw.40
						days = 3000
						random = 100
					}
				}
			}
		}
	}
}

adshaw_5_missions_s = { 
	slot = 5
	generic = no
	ai = yes 
	has_country_shield = yes
	potential = { tag = Z26 }
	
	adshaw_crovis_quest = {
		icon = mission_warrior_gold
		position = 1
		required_missions = { }
		
		trigger = {
			OR = {
				is_year = 1465
				Z45 = {
					exists = yes
					has_ruler = "Crovis"
				}
				custom_trigger_tooltip = {
					tooltip = crovis_defeated_in_esald
					Z18 = {
						has_country_flag = crovis_rebellion
						NOT = {
							num_of_rebel_armies = 1
							num_of_rebel_controlled_provinces = 1
						}
					}
				}
			}
		}
		
		effect = {
			if = {
				limit = {
					Z45 = { exists = yes }
				}
				create_marriage = Z45
				add_prestige = 15
			}
			else = {
				define_general = {
					shock = 5
					fire = 3
					manuever = 3
					siege = 4
					name = "Crovis Adshaw"
				}
			}
		}
	}
	
	adshaw_fate_of_the_valorous = {
		icon = mission_duel_snow
		position = 2
		required_missions = {
			adshaw_crovis_quest
		}
		
		trigger = {
			OR = {
				custom_trigger_tooltip = {
					tooltip = crovis_falls
					OR = {
						has_global_flag = crovis_defeated
						has_leader = "Crovis Adshaw"
					}
				}
				custom_trigger_tooltip = {
					tooltip = crovis_rises
					has_global_flag = crovis_victorious
				}
			}
		}
		
		effect = {
			if = {
				limit = {
					NOT = {
						has_global_flag = crovis_defeated
						has_global_flag = crovis_victorious
						has_leader = "Crovis Adshaw"
					}
				}
				custom_tooltip = crovis_fate_pending
			}
			else_if = {
				limit = {
					has_global_flag = crovis_defeated
					NOT = {
						has_leader = "Crovis Adshaw"
					}
				}
				define_general = {
					shock = 5
					fire = 3
					manuever = 3
					siege = 4
					name = "Crovis Adshaw"
				}
				add_manpower = 4
				country_event = {
					id = adshaw.13
				}
			}
			else_if = {
				limit = {
					has_global_flag = crovis_defeated
					has_leader = "Crovis Adshaw"
				}
				add_manpower = 4
				country_event = {
					id = adshaw.13
				}
			}
			else_if = {
				limit = {
					has_global_flag = crovis_victorious
				}
				add_prestige = 20
				add_opinion = {
					who = Z45
					modifier = op_war_for_the_vroren
				}
				reverse_add_opinion = {
					who = Z45
					modifier = op_war_for_the_vroren
				}
				country_event = {
					id = adshaw.13
				}
			}
		}
	}
}

adshaw_5_missions_scv = { 
	slot = 5
	generic = no
	ai = yes 
	has_country_shield = yes
	potential = { 
		tag = Z26 
		has_country_flag = crovis_victory_adshaw
	}
	
	adshaw_prince_of_vrorenmarch = {
		icon = regal_splendour
		position = 3
		required_missions = {
			adshaw_fate_of_the_valorous
		}
		
		trigger = {
			alliance_with = Z45
			has_opinion = {
				who = Z45
				value = 150
			}
		}
		
		effect = {
			add_trust = {
				who = Z45
				value = 10
				mutual = yes
			}
		}
	}
	
	adshaw_vrorenwood_company = {
		icon = take_the_littoral
		position = 4
		required_missions = {
			adshaw_prince_of_vrorenmarch
			adshaw_timber_barons
		}
		
		trigger = {
			years_of_income = 2.5
		}
		
		effect = {
			add_years_of_income = -2.5
			Z45 = {
				every_owned_province = {
					limit = {
						region = alenic_reach_region 
						has_terrain = forest
					}
					add_permanent_province_modifier = {
						name = vrorenwood_company
						duration = -1
					}
				}
				add_country_modifier = {
					name = Z45_vrorenwood
					duration = 18250
				}
			}
			add_country_modifier = {
				name = Z26_vrorenwood
				duration = 18250
			}
		}
	}
}

adshaw_5_missions_mcv = { 
	slot = 5
	generic = no
	ai = yes 
	has_country_shield = yes
	potential = { 
		tag = Z26
		has_country_flag = adshaw_king_of_the_reach
		has_country_flag = crovis_victory_adshaw
	}
	
	adshaw_house_of_the_reach = {
		icon = imperial_ascendancy
		position = 5
		required_missions = {
			adshaw_vrorenwood_company
		}
		
		trigger = {
			OR = {
				senior_union_with = Z45
				AND = {
					marriage_with = Z45
					Z45 = {
						trust = {
							who = Z26
							value = 100
						}
					}
				}
			}
		}
		
		effect = {
			add_country_modifier = {
				name = Z26_house_of_the_reach
				duration = -1
			}
			Z45 = {
				add_country_modifier = {
					name = Z26_house_of_the_reach
					duration = -1
				}
			}
		}
	}
	
	adshaw_twin_kingdoms = {
		icon = balance_the_estates
		position = 6
		required_missions = {
			adshaw_house_of_the_reach
		}
		
		provinces_to_highlight = {
			OR = {
				region = alenic_reach_region
			}
		}
		
		trigger = {
			Z26 = {
				owns_all_provinces = {
					area = serpentshead_area
				}
				owns_all_provinces = {
					area = northern_greatwoods_area
				}
				owns_all_provinces = {
					area = dinesck_area
				}
				owns_all_provinces = {
					area = west_chillsbay_area
				}
			}
			Z45 = {
				owns_all_provinces = {
					area = east_chillsbay_area 
				}
				owns_all_provinces = {
					area = wudhal_area 
				}
				owns_all_provinces = {
					area = sondaar_area 
				}
				owns_all_provinces = {
					area = vrorenwall_area 
				}
				owns_all_provinces = {
					area = cedesck_area 
				}
				owns_all_provinces = {
					area = gulletpeak_area 
				}
				owns_all_provinces = {
					area = vrorenmarch_area 
				}
			}
		}
		
		effect = {
			add_prestige = 25
			Z45 = {
				add_prestige = 25
			}
		}
	}
	
	adshaw_cyan_wedding = {
		icon = mission_marriage
		position = 7
		required_missions = {
			adshaw_twin_kingdoms
		}
		
		trigger = {
			OR = {
				senior_union_with = Z45
				AND = {
					dip_power = 250
					OR = {
						statesman = 3
						dip = 6
					}
					marriage_with = Z45
				}
			}
		}
		
		effect = {
			add_dip_power = -250
			create_union = Z45
		}
	}
	
	adshaw_songs_of_brotherhood = {
		icon = invest_in_the_provinces
		position = 8
		required_missions = {
			adshaw_cyan_wedding
		}
		
		trigger = {
			legitimacy = 100
			prestige = 75
			Z45 = {
				years_in_union_under = {
					who = Z26
					years = 50
				}
			}
		}
		
		effect = {
			add_country_modifier = {
				name = Z26_songs_of_brotherhood
				duration = 9125
			}
			hidden_effect = {
				set_country_flag = Z26_reach_fully_owned
			}
		}
	}
}

adshaw_5_missions_scd = { 
	slot = 5
	generic = no
	ai = yes 
	has_country_shield = yes
	potential = { 
		tag = Z26 
		has_country_flag = crovis_defeat_adshaw
	}
	
	adshaw_prodigal_son = {
		icon = jageillonian_union
		position = 3
		required_missions = {
			adshaw_fate_of_the_valorous
		}
		
		trigger = {
			is_at_war = no
			army_size_percentage = 1
		}
		
		effect = {
			add_country_modifier = {
				name = Z26_crovis_drill
				duration = 10950
			}
		}
	}
	
	adshaw_wolves_of_crovis = {
		icon = gory_to_the_black_army
		position = 4
		required_missions = {
			adshaw_prodigal_son
		}
		
		trigger = {
			treasury = 200
			manpower = 10
		}
		
		effect = {
			add_manpower = -10
			add_treasury = -200
			hidden_effect = {
				set_country_flag = wolves_of_crovis_formed
			}
			hidden_effect = { 1804 = { add_province_triggered_modifier = merc_wolves_of_crovis_free } }
			east_chillsbay_area = {
				limit = {
					NOT = { is_core = ROOT }
					NOT = { owned_by = ROOT }
				}
				add_permanent_claim = ROOT
			}
			custom_tooltip = wolves_of_crovis_mercs_tt
		}
	}
}

adshaw_5_missions_mcd = { 
	slot = 5
	generic = no
	ai = yes 
	has_country_shield = yes
	potential = { 
		tag = Z26
		has_country_flag = adshaw_king_of_the_reach
		has_country_flag = crovis_defeat_adshaw
	}
	
	adshaw_battle_of_the_chills = {
		icon = defend_the_city
		position = 5
		required_missions = {
			adshaw_wolves_of_crovis
		}
		
		provinces_to_highlight = {
			OR = {
				area = east_chillsbay_area
			}
		}
		
		trigger = {
			owns_all_provinces = {
				area = east_chillsbay_area
			}
		}
		
		effect = {
			add_country_modifier = {
				name = Z26_liberation_of_esald
				duration = 9125
			}
			add_prestige = 10
			sondaar_area = {
				limit = {
					NOT = { is_core = ROOT }
					NOT = { owned_by = ROOT }
				}
				add_permanent_claim = ROOT
			}
			wudhal_area = {
				limit = {
					NOT = { is_core = ROOT }
					NOT = { owned_by = ROOT }
				}
				add_permanent_claim = ROOT
			}
		}
	}
	
	adshaw_turning_the_tide = {
		icon = despot_stefans_legacy
		position = 6
		required_missions = {
			adshaw_battle_of_the_chills
		}
		
		provinces_to_highlight = {
			OR = {
				area = sondaar_area
				area = wudhal_area
			}
		}
		
		trigger = {
			owns_all_provinces = {
				area = sondaar_area
			}
			owns_all_provinces = {
				area = wudhal_area
			}
		}
		
		effect = {
			add_country_modifier = {
				name = Z26_a_new_hope
				duration = 9125
			}
			add_prestige = 10
			cedesck_area = {
				limit = {
					NOT = { is_core = ROOT }
					NOT = { owned_by = ROOT }
				}
				add_permanent_claim = ROOT
			}
			gulletpeak_area = {
				limit = {
					NOT = { is_core = ROOT }
					NOT = { owned_by = ROOT }
				}
				add_permanent_claim = ROOT
			}
		}
	}
	
	adshaw_cyan_dawn = {
		icon = capture_adriatic_ports
		position = 7
		required_missions = {
			adshaw_turning_the_tide
		}
		
		provinces_to_highlight = {
			OR = {
				area = cedesck_area
			}
		}
		
		trigger = {
			owns_all_provinces = {
				area = cedesck_area
			}
		}
		
		effect = {
			add_country_modifier = {
				name = Z26_cyan_dawn
				duration = 9125
			}
			add_prestige = 10
			vrorenmarch_area = {
				limit = {
					NOT = { is_core = ROOT }
					NOT = { owned_by = ROOT }
				}
				add_permanent_claim = ROOT
			}
			vrorenwall_area = {
				limit = {
					NOT = { is_core = ROOT }
					NOT = { owned_by = ROOT }
				}
				add_permanent_claim = ROOT
			}
		}
	}
	
	adshaw_where_crovis_fell = {
		icon = fight_bosnian_heresies
		position = 8
		required_missions = {
			adshaw_cyan_dawn
		}
		
		provinces_to_highlight = {
			OR = {
				area = vrorenmarch_area
				area = vrorenwall_area
			}
		}
		
		trigger = {
			owns_all_provinces = {
				area = vrorenmarch_area
			}
			owns_all_provinces = {
				area = vrorenwall_area
			}
		}
		
		effect = {
			add_country_modifier = {
				name = Z26_saviors_of_the_vroren
				duration = -1
			}
			add_prestige = 20
			vrorenmarch_area = {
				change_culture = white_reachman
				change_religion = ROOT
			}
			vrorenwall_area = {
				change_culture = white_reachman
				change_religion = ROOT
			}
			country_event = {
				id = adshaw.21
			}
			hidden_effect = {
				set_country_flag = Z26_reach_fully_owned
			}
		}
	}
}

adshaw_5_missions_m = { 
	slot = 5
	generic = no
	ai = yes 
	has_country_shield = yes
	potential = { 
		tag = Z26
		has_country_flag = adshaw_king_of_the_reach
	}
	
	adshaw_the_reach_united = {
		icon = promote_urbanization
		position = 9
		required_missions = { }
		
		provinces_to_highlight = {
			OR = {
				region = alenic_reach_region
			}
		}
		
		trigger = {
			stability = 3
			if = {
				limit = {
					has_country_flag = crovis_victory_adshaw
				}
				Z45 = {
					exists = no
				}
			}
			else = {
				custom_trigger_tooltip = {
					tooltip = where_crovis_fell_mission_done
					has_country_flag = Z26_reach_fully_owned
				}
			}
			alenic_reach_region = {
				type = all
				is_state_core = ROOT
				owned_by = ROOT
			}
		}
		
		effect = {
			add_accepted_culture = white_reachman
			northern_giants_tears_area = {
				discover_country = Z26
			}
			northern_giants_tears_area = {
				limit = {
					NOT = { is_core = ROOT }
					NOT = { owned_by = ROOT }
				}
				add_permanent_claim = ROOT
			}
			southern_giants_tears_area  = {
				discover_country = Z26
			}
			southern_giants_tears_area = {
				limit = {
					NOT = { is_core = ROOT }
					NOT = { owned_by = ROOT }
				}
				add_permanent_claim = ROOT
			}
			if = {
				limit = {
					has_country_flag = crovis_victory_adshaw
				}
				custom_tooltip = adshaw_timber_vrorenwood
				hidden_effect = {
					every_owned_province = {
						limit = {
							has_province_modifier = vrorenwood_company
						}
						remove_province_modifier = vrorenwood_company
						add_province_modifier = {
							name = Z26_timber_barons
							duration = -1
						}
					}
					remove_country_modifier = Z26_vrorenwood
				}
			}
			else_if = {
				limit = {
					has_country_flag = crovis_defeat_adshaw
				}
				custom_tooltip = adshaw_timber_vrorenwood_d
				hidden_effect = {
					every_owned_province = {
						limit = {
							NOT = {
								province_group = western_alenic_reach
							}
							region = alenic_reach_region
							has_terrain = forest
						}
						add_province_modifier = {
							name = Z26_timber_barons
							duration = -1
						}
					}
				}
			}
		}
	}
	
	adshaw_no_more_tears = {
		icon = mission_nomad
		position = 10
		required_missions = {
			adshaw_the_reach_united
		}
		
		provinces_to_highlight = {
			OR = {
				area = northern_giants_tears_area
				area = southern_giants_tears_area
			}
		}
		
		trigger = {
			owns_all_provinces = {
				area = northern_giants_tears_area
			}
			owns_all_provinces = {
				area = southern_giants_tears_area
			}
		}
		
		effect = {
			northern_giants_tears_area = {
				change_culture = white_reachman
				change_religion = ROOT
			}
			southern_giants_tears_area = {
				change_culture = white_reachman
				change_religion = ROOT
			}
		}
	}
	
	adshaw_establish_the_greymarck = {
		icon = fortress_of_belgrade
		position = 11
		required_missions = {
			adshaw_no_more_tears
		}
		
		provinces_to_highlight = {
			OR = {
				province_id = 991
				province_id = 992
			}
		}
		
		trigger = {
			991 = {
				base_manpower = 4
				has_fort_building_trigger = yes
			}
			992 = {
				base_manpower = 4
			}
			988 = {
				base_manpower = 4
			}
		}
		
		effect = {
			991 = {
				change_province_name = "Greyburg"
				add_permanent_province_modifier = {
					name = Z26_greymarck
					duration = -1
				}
			}
			992 = {
				change_province_name = "Wealwoud"
				add_permanent_province_modifier = {
					name = Z26_greymarck
					duration = -1
				}
			}
			988 = {
				change_province_name = "Morenort"
				add_permanent_province_modifier = {
					name = Z26_greymarck
					duration = -1
				}
			}
		}
	}
	
	adshaw_the_greater_reach = {
		icon = standardize_relazioni
		position = 12
		required_missions = {
			adshaw_establish_the_greymarck
		}
		
		trigger = {
			adm_power = 250
			legitimacy = 100
			prestige = 80
		}
		
		effect = {
			add_prestige = -10
			add_adm_power = -250
			middle_alen_area = {
				limit = {
					NOT = { is_core = ROOT }
					NOT = { owned_by = ROOT }
				}
				add_permanent_claim = ROOT
			}
			athfork_area = {
				limit = {
					NOT = { is_core = ROOT }
					NOT = { owned_by = ROOT }
				}
				add_permanent_claim = ROOT
			}
			ebonmarck_area = {
				limit = {
					NOT = { is_core = ROOT }
					NOT = { owned_by = ROOT }
				}
				add_permanent_claim = ROOT
			}
		}
	}
}

adshaw_5_missions_e = { 
	slot = 5
	generic = no
	ai = yes 
	has_country_shield = yes
	potential = { 
		tag = Z26
		has_country_flag = adshaw_empire_of_the_reach
	}
	
	adshaw_crown_of_the_mire = {
		icon = mission_tree_fishing
		position = 13
		required_missions = {
			adshaw_the_greater_reach
		}
		
		trigger = {
			prestige = 80
			adm_power = 350
		}
		
		effect = {
			add_prestige = -10
			add_adm_power = -350
			balmire_area = {
				limit = {
					NOT = { is_core = ROOT }
					NOT = { owned_by = ROOT }
				}
				add_permanent_claim = ROOT
			}
			falsemire_area = {
				limit = {
					NOT = { is_core = ROOT }
					NOT = { owned_by = ROOT }
				}
				add_permanent_claim = ROOT
			}
			cannwood_area = {
				limit = {
					NOT = { is_core = ROOT }
					NOT = { owned_by = ROOT }
				}
				add_permanent_claim = ROOT
			}
		}
	}
	
	adshaw_city_by_the_river = {
		icon = mission_rb_hanseatic_east
		position = 15
		required_missions = { }
		
		provinces_to_highlight = {
			province_id = 718
		}
		
		trigger = {
			718 = {
				development = 40
				has_building = university
				has_courthouse_building_trigger = yes
			}
		}
		
		effect = {
			718 = {
				add_province_modifier = {
					name = Z26_beacon_of_the_vroren
					duration = -1
				}
				change_trade_goods = glass
			}
		}
	}
}
