corintar_1_missions = {
	slot = 1
	generic = no
	ai = yes
	has_country_shield = yes
	potential = {
		tag = B02 # Corintar
		has_country_flag = formed_corintar_flag
	}

	corintar_the_fields_of_burnoll = {
		icon = mission_secure_khandesh
		position = 3
		required_missions = { corintar_grannvale_recruits }
		
		provinces_to_highlight = {
			area = burnoll_area
			OR = {
				NOT = { country_or_non_sovereign_subject_holds = ROOT }
				NOT = {
					OR = {
						base_production = 5
						has_production_building_trigger = yes
					}
				}
				devastation = 1
			}
		}

		trigger = {
			burnoll_area = {
				type = all
				country_or_non_sovereign_subject_holds = ROOT
				OR = {
					base_production = 5
					has_production_building_trigger = yes
				}
				NOT = { devastation = 1 }
			}
			burnoll_area = {
				type = any
				fort_level = 2
			}
		}
		
		effect = {
			themin_area = {
				limit = {
					NOT = { is_core = ROOT }
				}
				add_permanent_claim = ROOT
			}
			burnoll_area = {
				add_base_manpower = 1
			}
			random_owned_province = {
				limit = {
					area = burnoll_area
					fort_level = 2
				}
				add_base_tax = 1
			}
			corintar_refresh_reconstruction = yes
		}
	}

	corintar_corinite_riders = {
		icon = mission_teutonic_knights
		position = 4
		required_missions = { corintar_the_fields_of_burnoll }
		
		provinces_to_highlight = {
			area = themin_area
			OR = {
				NOT = { country_or_non_sovereign_subject_holds = ROOT }
				devastation = 1
			}
		}
		
		trigger = {
			themin_area = {
				type = all
				country_or_non_sovereign_subject_holds = ROOT
				NOT = { devastation = 1 }
			}
			themin_area = {
				type = any
				fort_level = 2
			}
			num_of_cavalry = 8
			any_owned_province = {
				trade_goods = livestock
				has_building = farm_estate
			}
		}

		effect = {
			random_owned_province = {
				limit = {
					trade_goods = livestock
					has_building = farm_estate
				}
				add_base_production = 2
			}
			add_country_modifier = { 
				name = corintar_corinite_riders
				duration = 29200 # 80 years
			}
			corintar_refresh_reconstruction = yes
		}
	}

	corintar_aid_from_anbennar = {
		icon = mission_have_two_subjects
		position = 5
		required_missions = { corintar_envoy_to_the_borders }
		
		provinces_to_highlight = {
			owned_by = emperor
		}

		trigger = {
			# Case 1: the deluge has begun and the emperor is regent court -> skip mission
			if = {
				limit = {
					hre_size = 1
					is_religion_enabled = corinite
					emperor = { religion = regent_court }
					has_global_flag = crimson_deluge
				}
				prestige = 25
			}
			# Case 2: the emperor is regent court but corinite is enabled -> reduced emperor relations requirement
			if = {
				limit = {
					hre_size = 1
					is_religion_enabled = corinite
					emperor = {
						religion = regent_court
					}
				}
				has_spy_network_in = {
					who = emperor
					value = 50
				}
				OR = {
					emperor = {
						has_opinion = {
							who = ROOT
							value = 100
						}
					}
					calc_true_if = {
						all_elector = {
							has_opinion = {
								who = ROOT
								value = 150
							}
						}
						amount = 3
					}
				}
			}
			# Case 3: corinite isn't enabled -> full relations requirements
			else_if = {
				limit = { hre_size = 1 }
				has_spy_network_in = {
					who = emperor
					value = 50
				}
				OR = {
					emperor = {
						has_opinion = {
							who = ROOT
							value = 150
						}
					}
					calc_true_if = {
						all_elector = {
							has_opinion = {
								who = ROOT
								value = 150
							}
						}
						amount = 3
					}
				}
			}
			# Case 4: the empire doesn't exist -> skip mission
			else = {
				prestige = 25
			}
		}
		
		effect = {
			if = {
				limit = {
					hre_size = 1 
					NOT = {
						AND = {
							emperor = { religion = regent_court }
							has_global_flag = crimson_deluge
						}
					}
				}
				add_treasury = 400
			}
			else = {
				add_treasury = 100
			}
			if = {
				limit = {
					calc_true_if = {
						all_elector = {
							has_opinion = {
								who = ROOT
								value = 150
							}
						}
						amount = 3
					}
				}
				every_elector = {
					limit = {
						has_opinion = {
							who = ROOT
							value = 150
						}
					}
					add_trust = {
						who = ROOT
						value = 10
						mutual = yes
					}
					add_country_modifier = {
						name = corintar_corintar_chapter
						duration = -1  
					}
					hidden_effect = {
						set_country_flag = corintar_chapter
						country_event = { id = flavor_corintar.17 }
					}
				}
				hidden_effect = {
					country_event = { id = flavor_corintar.17 }
				}
			}
			else = {
				emperor = {
					add_trust = {
						who = ROOT
						value = 10
						mutual = yes
					}
					add_country_modifier = {
						name = corintar_corintar_chapter
						duration = -1  
					}
					hidden_effect = {
						set_country_flag = corintar_chapter
						country_event = { id = flavor_corintar.17 }
					}
				}
				hidden_effect = {
					country_event = { id = flavor_corintar.17 }
				}
			}
		}
	}

	corintar_return_of_the_farmers = {
		icon = mission_rice_field
		position = 6
		required_missions = { corintar_aid_from_anbennar }
		
		provinces_to_highlight = {
			owned_by = ROOT
			OR = {
				trade_goods = grain
				trade_goods = livestock
				trade_goods = wine
			}
			OR = {
				NOT = { has_building = farm_estate }
				NOT = { base_production = 6 }
			}
		}

		trigger = {
			calc_true_if = {
				all_owned_province = {
					has_building = farm_estate
					base_production = 6
				}
				amount = 6
			}
		}
		
		effect = {
			oldhaven_area = {
				limit = {
					NOT = { is_core = ROOT }
				}
				add_permanent_claim = ROOT
			}
			add_country_modifier = {
				name = corintar_farmland_boom
				duration = 7300
			}
			custom_tooltip = corintar_fort_manpower_tt
			hidden_effect = {
				corintar_fort_manpower = yes
				corintar_fort_manpower = yes
				corintar_fort_manpower = yes
				corintar_fort_manpower = yes
				corintar_fort_manpower = yes
				corintar_fort_manpower = yes
				corintar_fort_manpower = yes
				corintar_fort_manpower = yes
				every_owned_province = {
					clr_province_flag = corintar_flag
				}
			}
		}
	}

	corintar_clear_the_woods = {
		icon = mission_clear_the_delta
		position = 7
		required_missions = { corintar_return_of_the_farmers }
		
		provinces_to_highlight = {
			area = oldhaven_area
			OR = {
				NOT = { country_or_non_sovereign_subject_holds = ROOT }
				NOT = { religion = corinite }
				NOT = { development = 10 }
				devastation = 1
			}
		}

		trigger = {
			oldhaven_area = {
				type = all
				country_or_non_sovereign_subject_holds = ROOT
				religion = corinite
				development = 10
				NOT = { devastation = 1 }
			}
			oldhaven_area = {
				type = any
				fort_level = 2
				has_tax_building_trigger = yes
			}
			if = {
				limit = {
					oldhaven_area = {
						type = any
						NOT = { has_manufactory_trigger = yes }
						OR = {
							trade_goods = wine
							trade_goods = grain
							trade_goods = livestock
						}
					}
				}
				treasury = 200
			}
		}
		
		effect = {
			blademarch_area = {
				limit = {
					NOT = { is_core = ROOT }
				}
				add_permanent_claim = ROOT
			}
			874 = { # Oldhaven
				add_base_production = 2
			}
			if = {
				limit = {
					oldhaven_area = {
						type = any
						NOT = { has_manufactory_trigger = yes }
						OR = {
							trade_goods = wine
							trade_goods = grain
							trade_goods = livestock
						}
					}
				}
				add_treasury = -200
				oldhaven_area = {
					limit = {
						NOT = { has_manufactory_trigger = yes }
						OR = {
							trade_goods = wine
							trade_goods = grain
							trade_goods = livestock
						}
					}
					add_building = farm_estate
				}
			}
		}
	}

	corintar_enchanted_rain = {
		icon = mission_reclaim_dehli #sic
		position = 8
		required_missions = { corintar_clear_the_woods }
		
		provinces_to_highlight = {}

		trigger = {
			custom_trigger_tooltip = {
				tooltip = corintar_deluge_is_over_tt
				has_global_flag = crimson_deluge_is_over
			}
			if = {
				limit = {
					has_estate = estate_mages
				}
				estate_loyalty = {
					estate = estate_mages
					loyalty = 60
				}
				estate_influence = {
					estate = estate_mages
					influence = 20
				}
				mage_tower = 1
			}
		}
		
		effect = {
			if = {
				limit = {
					has_estate = estate_mages
				}
				custom_tooltip = corintar_free_plant_growth_tt
				hidden_effect = {
					every_owned_province = {
						limit = { province_with_farm_goods = yes }
						if = {
							limit = {
								ROOT = {
									estate_influence = {
										estate = estate_mages
										influence = 66
									}
								}
							}
							add_province_modifier = {
								name = magic_realm_transmutation_plant_growth_3
								duration = 3650
							}
						}
						else_if = {
							limit = {
								ROOT = {
									estate_influence = {
										estate = estate_mages
										influence = 33
									}
								}
							}
							add_province_modifier = {
								name = magic_realm_transmutation_plant_growth_2
								duration = 3650
							}
						}
						else = {
							add_province_modifier = {
								name = magic_realm_transmutation_plant_growth_1
								duration = 3650
							}
						}
					}
				}
			}
			else = {
				add_years_of_income = 0.5
			}
		}
	}

	corintar_rise_of_new_cities = {
		icon = claim_tirol
		position = 9
		required_missions = {
			corintar_enchanted_rain
			corintar_the_corinsfall_decree
		}
		
		provinces_to_highlight = {
			owned_by = ROOT
			OR = {
				has_terrain = farmlands
				has_terrain = grasslands
			}
			OR = {
				NOT = { development = 30 }
				NOT = { religion = corinite }
			}
			NOT = { trade_goods = glass }
			NOT = { trade_goods = cloth }
			NOT = { trade_goods = paper }
			NOT = { trade_goods = dyes }
			NOT = { trade_goods = damestear }
			NOT = { trade_goods = gold }
		}

		trigger = {
			adm_tech = 16
			calc_true_if = {
				all_owned_province = {
					OR = {
						has_terrain = farmlands
						has_terrain = grasslands
					}
					development = 30
					religion = corinite
					NOT = { trade_goods = glass }
					NOT = { trade_goods = cloth }
					NOT = { trade_goods = paper }
					NOT = { trade_goods = dyes }
				}
				amount = 3
			}
		}
		effect = {
			random_owned_province = {
				limit = {
					OR = {
						has_terrain = farmlands
						has_terrain = grasslands
					}
					development = 30
					religion = corinite
					NOT = { trade_goods = glass }
					NOT = { trade_goods = cloth }
					NOT = { trade_goods = paper }
					NOT = { trade_goods = dyes }
					NOT = { trade_goods = damestear }
					NOT = { trade_goods = gold }
				}
				change_trade_goods = glass
				add_building = mills
				add_province_modifier = {
					name = corintar_influx_of_settlers
					duration = 7300
				}
			}
			random_owned_province = {
				limit = {
					OR = {
						has_terrain = farmlands
						has_terrain = grasslands
					}
					development = 30
					religion = corinite
					NOT = { trade_goods = glass }
					NOT = { trade_goods = cloth }
					NOT = { trade_goods = paper }
					NOT = { trade_goods = dyes }
					NOT = { trade_goods = damestear }
					NOT = { trade_goods = gold }
				}
				change_trade_goods = paper
				add_building = mills
				add_province_modifier = {
					name = corintar_influx_of_settlers
					duration = 7300
				}
			}
			random_owned_province = {
				limit = {
					OR = {
						has_terrain = farmlands
						has_terrain = grasslands
					}
					development = 30
					religion = corinite
					NOT = { trade_goods = glass }
					NOT = { trade_goods = cloth }
					NOT = { trade_goods = paper }
					NOT = { trade_goods = dyes }
					NOT = { trade_goods = damestear }
					NOT = { trade_goods = gold }
				}
				change_trade_goods = cloth
				add_building = textile
				add_province_modifier = {
					name = corintar_influx_of_settlers
					duration = 7300
				}
			}
		}
	}

	corintar_monastic_education = {
		icon = mission_develop_alhambra
		position = 14
		required_missions = { corintar_rise_of_new_cities }
		
		provinces_to_highlight = {}

		trigger = {
			has_reform = monastic_order_reform
			calc_true_if = {
				all_owned_province = {
					religion = corinite
					fort_level = 2
					has_building = university
					has_tax_building_trigger = yes
				}
				amount = 6
			}
			army_tradition = 50
		}
		
		effect = {
			add_adm_power = 50
			change_innovativeness = 3
			if = {
				limit = { has_dlc = "Dharma" }
				add_country_modifier = {
					name = corintar_martial_education
					duration = -1
				}
			}
			else = {
				add_country_modifier = {
					name = corintar_martial_education_nodlc
					duration = -1
				}
			}
		}
	}

}

corintar_2_missions = {
	slot = 2
	generic = no
	ai = yes
	has_country_shield = yes
	potential = {
		tag = B02 # Corintar
		has_country_flag = formed_corintar_flag
	}

	corintar_grannvale_recruits = {
		icon = protect_against_austria
		position = 2
		required_missions = { corintar_a_base_of_operations }
		
		provinces_to_highlight = {
			area = escerfork_area
			OR = {
				NOT = { country_or_non_sovereign_subject_holds = ROOT }
				NOT = { base_manpower = 6 }
				devastation = 1
			}
		}

		trigger = {
			escerfork_area = {
				type = all
				country_or_non_sovereign_subject_holds = ROOT
				base_manpower = 6
				NOT = { devastation = 1 }
			}
			escerfork_area = {
				type = any
				fort_level = 2
			}
			escerfork_area = {
				type = any
				has_ruler_leader_from = ROOT
			}
		}
		
		effect = {
			burnoll_area = {
				limit = {
					NOT = { is_core = ROOT }
				}
				add_permanent_claim = ROOT
			}
			add_yearly_manpower = 1
			corintar_refresh_reconstruction = yes
		}
	}

	corintar_marquis_of_the_north = {
		icon = concert_of_europe
		position = 3
		required_missions = {
			corintar_grannvale_recruits
			corintar_corintar_chapters
		}
		
		provinces_to_highlight = {
			corintar_establish_chapter_highlight = {
				tag = A46			# Arbaran
				capital = 349		# Arbaran
			}
		}

		trigger = {
			corintar_establish_chapter_trigger = {
				tag = A46
				capital = 349
			}
		}
		effect = {
			add_treasury = 100
			corintar_establish_chapter_effect = {
				tag = A46
				capital = 349
				chapter = corintar_corintar_chapter
				modifier = corintar_adventurer_grants
				lore = flavor_corintar.14
			}
		}
	}

	corintar_envoy_to_the_borders = {
		icon = mission_to_japan
		position = 4
		required_missions = { corintar_marquis_of_the_north }

		provinces_to_highlight = {
			corintar_establish_chapter_highlight = {
				tag = A72			# Arannen
				capital = 904		# Arannen
			}
		}

		trigger = {
			corintar_establish_chapter_trigger = {
				tag = A72
				capital = 904
			}
		}
		
		effect = {
			add_treasury = 200
			corintar_establish_chapter_effect = {
				tag = A72
				capital = 904
				chapter = corintar_corintar_chapter
				modifier = corintar_borderland_diplomacy
				lore = flavor_corintar.15
			}
		}
	}

	corintar_the_gawed_embassy = {
		icon = a_strong_government
		position = 5
		required_missions = { corintar_envoy_to_the_borders }
		
		provinces_to_highlight = {
			corintar_establish_chapter_highlight = {
				tag = A13			# Gawed
				capital = 221		# Gaweton
			}
		}

		trigger = {
			corintar_establish_chapter_trigger = {
				tag = A13
				capital = 221
			}
		}
		
		effect = {
			add_treasury = 300
			corintar_establish_chapter_effect = {
				tag = A13
				capital = 221
				chapter = corintar_corintar_chapter
				modifier = corintar_alenic_migrants
				lore = flavor_corintar.16
			}
		}
	}

	corintar_chapter_recruits = {
		icon = mercenary_companies
		position = 6
		required_missions = {
			corintar_aid_from_anbennar
			corintar_the_gawed_embassy
		}

		provinces_to_highlight = {
			owner = {
				has_country_flag = corintar_chapter
				NOT = { is_enemy = ROOT }
				NOT = { is_rival = ROOT }
				NOT = {
					has_opinion = {
						who = ROOT
						value = 100
					}
				}
			}
		}

		trigger = {
			custom_trigger_tooltip = {
				tooltip = corintar_recruits_tt
				all_known_country = {
					OR = {
						NOT = { has_country_flag = corintar_chapter }
						has_opinion = {
							who = ROOT
							value = 100
						}
						is_enemy = ROOT
						is_rival = ROOT
					}
				}
			}
		}
		
		effect = {
			add_mil_power = 50
			add_yearly_manpower = 1
			add_army_tradition = 10
		}
	}

	corintar_restructure_the_ranks = {
		icon = mission_assemble_an_army
		position = 7
		required_missions = {
			corintar_chapter_recruits
			corintar_the_corinite_crusaders
		}
		
		provinces_to_highlight = {}

		trigger = {
			NOT = { has_country_modifier = corintar_rabid_recruits }
			if = {
				limit = { has_dlc = "Cradle of Civilization" }
				OR = {
					army_tradition = 40
					army_professionalism = 0.40
				}
			}
			else = {
				army_tradition = 40
			}
			manpower_percentage = 0.50
		}
		
		effect = {
			if = {
				limit = { has_dlc = "Cradle of Civilization" }
				add_army_professionalism = 0.05
				custom_tooltip = corintar_restructure_tt
			}
			else = {
				add_army_tradition = 5
				custom_tooltip = corintar_restructure_nodlc_tt
			}
			
		}
	}

	corintar_the_corinsfall_decree = {
		icon = expand_to_the_south
		position = 8
		required_missions = { corintar_restructure_the_ranks }
		
		provinces_to_highlight = {}

		trigger = {
			employed_advisor = {
				category = ADM
				religion = corinite
			}
			employed_advisor = {
				category = DIP
				religion = corinite
			}
			employed_advisor = {
				category = MIL
				religion = corinite
			}
			has_leader_with = {
				general = yes
				shock = 4
			}
		}
		
		effect = {
			add_country_modifier = {
				name = corintar_the_corinsfall_decree
				duration = 3650
			}
			custom_tooltip = corintar_decree_tt
		}
	}

	corintar_corintar_leadership = {
		icon = hungarian_union
		position = 11
		required_missions = { corintar_the_corinite_accord }
		
		provinces_to_highlight = {}

		trigger = {
			if = {
				limit = {
					NOT = { corintar_league_war_started = yes }
				}
				religion = corinite
				if = {
					limit = { has_dlc = "Emperor" }
					is_defender_of_faith_of_tier = 4
				}
				else = {
					is_defender_of_faith = yes
					calc_true_if = {
						all_known_country = {
							religion = corinite
						}
						amount = 20
					}
				}
			}
		}
		
		effect = {
			if = {
				limit = {
					NOT = { corintar_league_war_started = yes }
				}
				add_prestige = 10
				add_army_tradition = 10
				add_country_modifier = {
					name = corintar_corintar_leadership
					duration = -1
					desc = corintar_removed_at_league_war_tt
				}
			}
		}
	}

	corintar_retrain_our_diplomats = {
		icon = immaculate_government
		position = 14
		required_missions = { corintar_the_fate_of_anbennar }
		
		provinces_to_highlight = {}

		trigger = {
			diplomat = 3
			monthly_dip = 10
		}
		
		effect = {
			add_country_modifier = {
				name = corintar_agents_in_training
				duration = 3650
			}
		}
	}

	corintar_escann_restored = {
		icon = mission_collect_yasak
		position = 15
		required_missions = {
			corintar_monastic_education
			corintar_retrain_our_diplomats
		}
		
		provinces_to_highlight = {}

		trigger = {
			if = {
				limit = { has_dlc = "Mandate of Heaven" }
				calc_true_if = {
					all_owned_province = {
						custom_trigger_tooltip = {
							tooltip = corintar_prosperous_tt
							is_prosperous = yes
						}
					}
					amount = 16
				}
			}
			else = {
				stability = 3
			}
			calc_true_if = {
				all_owned_province = {
					has_manufactory_trigger = yes
				}
				amount = 16
			}
			NOT = { average_unrest = -1 }
		}
		
		effect = {
			add_yearly_manpower = 1
			if = {
				limit = {
					mission_completed = corintar_escann_defended
				}
				hidden_effect = {
					remove_country_modifier = corintar_reconstruction
					remove_country_modifier = corintar_reconstruction_improved
				}
				add_country_modifier = {
						name = corintar_reconstruction_permanent
						duration = -1
				}
			}
			else = {
				corintar_refresh_reconstruction = yes
				custom_tooltip = corintar_escann_restored_tt
			}
		}
	}
}

corintar_3_missions = {
	slot = 3
	generic = no
	ai = yes
	has_country_shield = yes
	potential = {
		tag = B02 # Corintar
		has_country_flag = formed_corintar_flag
	}

	corintar_a_base_of_operations = {
		icon = mission_early_game_buildings
		position = 1
		required_missions = {}
		
		provinces_to_highlight = {
			is_capital_of = ROOT
			NOT = {
				AND = {
					fort_level = 2
					development = 30
				}
			}
		}

		trigger = {
			NOT = { has_reform = adventurer_reform }
			capital_scope = {
				fort_level = 2
				development = 30
			}
			manpower_percentage = 0.50
		
		}
		
		effect = {
			escerfork_area = {
				limit = {
					NOT = { is_core = ROOT }
				}
				add_permanent_claim = ROOT
			}
			southgate_area = {
				limit = {
					NOT = { is_core = ROOT }
				}
				add_permanent_claim = ROOT
			}
			add_country_modifier = {
				name = corintar_reconstruction
				duration = 5475
			}
			custom_tooltip = corintar_extended_on_mission_tt
		}
	}

	corintar_corintar_chapters = {
		icon = assert_our_sovereignty
		position = 2
		required_missions = { corintar_a_base_of_operations }
		
		provinces_to_highlight = {}

		trigger = {
			if = {
				limit = {
					any_known_country = {
						NOT = { is_rival = ROOT }
						NOT = { is_enemy = ROOT }
						NOT = { has_country_modifier = monstrous_nation }
						same_continent = ROOT
					}
				}
				any_ally = {
					has_spy_network_from = {
						who = ROOT
						value = 50
					}
					has_opinion = {
						who = ROOT
						value = 200
					}
				}
			}
		}
		effect = {
			random_ally = {
				limit = {
					has_spy_network_from = {
						who = ROOT
						value = 50
					}
					has_opinion = {
						who = ROOT
						value = 200
					}
				}
				add_country_modifier = {
					name = corintar_corintar_chapter
					duration = -1
				}
				hidden_effect = {
					set_country_flag = corintar_chapter
				}
			}
			add_country_modifier = {
				name = corintar_corintar_chapters
				duration = -1
				desc = corintar_removed_at_deluge_tt
			}
		}
	}

	corintar_secure_the_southgate = {
		icon = control_the_means_of_transaction
		position = 3
		required_missions = { corintar_corintar_chapters }
		
		provinces_to_highlight = {
			area = southgate_area
			NOT = {
				southgate_area = {
					type = any
					fort_level = 2
					development = 10
				}
			}
		}

		trigger = {
			southgate_area = {
				type = any
				fort_level = 2
				development = 10
			}
		}
		
		effect = {
			castonath_area = {
				limit = {
					NOT = { is_core = ROOT }
				}
				add_permanent_claim = ROOT
			}
			add_country_modifier = {
				name = corintar_protectors_of_escann
				duration = 3650
			}
			corintar_refresh_reconstruction = yes
		}
	}

	corintar_the_city_of_stone = {
		icon = mission_magnificent_castle
		position = 4
		required_missions = {
			corintar_secure_the_southgate
			corintar_reconstruction_missions
		}
		
		provinces_to_highlight = {
			area = castonath_area
			OR = {
				NOT = { country_or_non_sovereign_subject_holds = ROOT }
				NOT = { has_owner_religion = yes }
				devastation = 1
			}
		}

		trigger = {
			castonath_area = {
				type = all
				country_or_non_sovereign_subject_holds = ROOT
				has_owner_religion = yes
				NOT = { devastation = 1 }
			}
		}
		
		effect = {
			castonath_area = {
				add_province_modifier = {
					name = corintar_influx_of_settlers
					duration = 7300
				}
			}
			corintar_refresh_reconstruction = yes
		}
	}

	corintar_corinsfall_memorial = {
		icon = ark_of_the_covenant
		position = 5
		required_missions = { corintar_the_city_of_stone }
		
		provinces_to_highlight = {
			area = castonath_area
			OR = {
				NOT = { owned_by = ROOT }
				NOT = { development = 25 }
				NOT = { religion = corinite }
				AND = {
					province_id = 832
					NOT = { has_tax_building_trigger = yes }
				}
			}
		}

		trigger = {
			castonath_area = {
				type = all
				owned_by = ROOT
				development = 25
				religion = corinite
			}
			832 = {
				has_tax_building_trigger = yes
			}
		}
		
		
		effect = {
			custom_tooltip = corintar_corinsfall_memorial_tt
			832 = {
				add_province_triggered_modifier = corintar_corinsfall_memorial
			}
		}
	}

	corintar_the_corinite_crusaders = {
		icon = evengelize_the_faith #sic
		position = 6
		required_missions = {
			corintar_the_gawed_embassy
			corintar_corinsfall_memorial
			corintar_trade_with_grombar
		}
		
		provinces_to_highlight = {
			owner = {
				NOT = { religion = corinite }
				is_neighbor_of = ROOT
			}
		}

		trigger = {
			custom_trigger_tooltip = {
				tooltip = corintar_deluge_tt
				OR = {
					has_global_flag = crimson_deluge_is_over
					has_global_flag = crimson_deluge_is_actively_happening
	
				}
			}
			religion = corinite
			if = {
				limit = { has_dlc = "Common Sense" }
				OR = {
					NOT = { karma = 0 }
					at_war_with_religious_enemy = yes
				}
			}
			else = {
				at_war_with_religious_enemy = yes
			}
			
		}
		
		effect = {
			add_devotion = 10
			if = {
				limit = { has_dlc = "Common Sense" }
				add_karma = -10
			}
			add_country_modifier = {
				name = corintar_rabid_recruits
				duration = 730
			}
			hidden_effect = {
				set_country_flag = corintar_crusaders_flag
			}
		}
	}

	corintar_blood_in_the_streets = {
		icon = revenge_for_nicopolis
		position = 7
		required_missions = { corintar_the_corinite_crusaders }
		
		provinces_to_highlight = {
			superregion = escann_superregion
			religion = regent_court
		}

		trigger = {
			if = {
				limit = {
					OR = {
						any_owned_province = {
							religion = regent_court
						}
						inner_castanor_region = {
							type = any
							religion = regent_court
						}
						west_castanor_region = {
							type = any
							religion = regent_court
						}
						south_castanor_region = {
							type = any
							religion = regent_court
						}
					}
				}
				any_owned_province = {
					religion = regent_court
				}
			}
			else = { # this trigger is always true, here for tooltip
				inner_castanor_region = {
					type = all
					NOT = { religion = regent_court }
				}
				west_castanor_region = {
					type = all
					NOT = { religion = regent_court }
				}
				south_castanor_region = {
					type = all
					NOT = { religion = regent_court }
				}
			}

		}
		effect = {
			if = {
				limit = {
					any_owned_province = { religion = regent_court }
				}
				corintar_violent_conversion = yes
				corintar_violent_conversion = yes
				corintar_violent_conversion = yes
				corintar_violent_conversion = yes
				corintar_violent_conversion = yes
			}
			else = {
				add_stability = 1
			}
		}
	}

	corintar_tension_abroad = {
		icon = empower_the_junkers
		position = 8
		required_missions = { corintar_blood_in_the_streets }
		
		provinces_to_highlight = {
			owner = {
				has_country_flag = corintar_chapter
			}
		}

		trigger = {
			if = {
				limit = {
					any_known_country = {
						has_country_flag = corintar_chapter
					}
				}
				any_known_country = {
					custom_trigger_tooltip = {
						tooltip = corintar_has_chapter_tt
						has_country_flag = corintar_chapter
					}
					OR = {
						war_with = ROOT
						is_rival = ROOT
						is_enemy = ROOT
						has_opinion_modifier = {
							who = ROOT
							modifier = insulted
						}
						if = {
							limit = { has_dlc = "Dharma" }	
							has_opinion_modifier = {
								who = ROOT
								modifier = scornfully_insulted
							}
						}
					}
				}
			}
			else = {
				custom_trigger_tooltip = {
					tooltip = corintar_no_chapters_tt
					always = yes
				}
			}
		}
		
		effect = {
			add_country_modifier = {
				name = corintar_tension_abroad
				duration = 730
			}
			custom_tooltip = corintar_tension_tt
		}
	}

	corintar_the_great_purge = {
		icon = mission_rb_control_state_religion
		position = 9
		required_missions = {
			corintar_the_corinsfall_decree
			corintar_tension_abroad
		}
		
		provinces_to_highlight = {}

		trigger = {
			custom_trigger_tooltip = {
				tooltip = corintar_purge_tt
				AND = {
					NOT = { has_country_modifier = corintar_corintar_chapters }
					mission_completed = corintar_corintar_chapters
				}
			}
			religion = corinite
			if = {
				limit = { has_dlc = "Common Sense" }
				NOT = { karma = -90 }
			}
		}
		
		effect = {
			add_stability = -1
			custom_tooltip = corintar_remove_chapters_tt
			hidden_effect = {
				every_country = {
					limit = { has_country_flag = corintar_chapter }
					country_event = { 
						id = flavor_corintar.10
						days = 30
						random = 15
					}
				}
				if = {
					limit = { has_dlc = "Common Sense" }
					every_neighbor_country = {
						limit = {
							religion = corinite
							karma = -33
						}
						country_event = { 
							id = flavor_corintar.10
							days = 30
							random = 15
						}
					}
				}
			}
			if = {
				limit = {
					NOT = { government = theocracy }
				}
				change_government = theocracy
				add_government_reform = monastic_order_reform
			}
			if = {
				limit = {
					NOT = { has_reform = monastic_order_reform }
				}
				add_government_reform = monastic_order_reform
			}
			add_government_reform = corintar_corinite_crusade
		}
	}

	corintar_the_corinite_accord = {
		icon = friends_in_high_places
		position = 10
		required_missions = { corintar_the_great_purge }
		
		provinces_to_highlight = {}

		trigger = {
			if = {
				limit = {
					NOT = { corintar_league_war_started = yes }
				}
			}
			hre_leagues_enabled = yes
			in_league = corinite
		}
		
		effect = {
			if = {
				limit = {
					NOT = { corintar_league_war_started = yes }
				}
				custom_tooltip = corintar_accord_tt
				hidden_effect = {
					every_known_country = {
						limit = {
							religion = corinite
						}
						add_opinion = {
							who = ROOT
							modifier = corintar_corinite_accord_opinion
						}
					}
				}
			}
		}
	}

	corintar_corinite_refugees = {
		icon = mission_conquer_timbuktu
		position = 11
		required_missions = { corintar_the_corinite_accord }
		
		provinces_to_highlight = {
			owned_by = ROOT
			religion = Corinite
		}

		trigger = {
			development_in_provinces = {
				value = 300
				religion = corinite
			}
		}
		
		effect = {
			if = {
				limit = {
					NOT = { corintar_league_war_started = yes }
				}
				add_prestige = 10
				add_army_tradition = 10
				add_country_modifier = {
					name = corintar_a_safe_haven 
					duration = -1
					desc = corintar_removed_at_league_war_tt
				}
			}
		}
	}

	corintar_corins_champion = {
		icon = mission_protect_albania
		position = 12
		required_missions = {
			corintar_corintar_leadership
			corintar_corinite_refugees
			corintar_rabble_reorganized
		}
		
		provinces_to_highlight = {}

		trigger = {
			if = {
				limit = {
					NOT = { corintar_league_war_started = yes }
				}
				custom_trigger_tooltip = {
					tooltip = corintar_champion_tt
					has_leader_with = {
						general = yes
						shock = 6
					}
				}
				prestige = 50
			}
		}
		
		effect = {
			# if the league war already started, skip this mission
			if = {
				limit = { corintar_league_war_started = yes }
				add_prestige = 5
			}
			# if the corinite league leader is a human player, add 50 prestige
			else_if = {
				limit = {
					any_country = {
						is_league_leader = yes
						in_league = corinite
						NOT = { ai = yes }
					}
				}
				add_prestige = 50
			}
			# if the (AI) emperor is the corinite league leader, ally them and gain 25 prestige
			else_if = {
				limit = {
					emperor = { religion = corinite }
				}
				create_alliance = emperor
				add_prestige = 25
			}
			else = {
				custom_tooltip = corintar_league_leader_tt
				hidden_effect = {
					join_league = corinite
					every_country = {
						limit = { in_league = corinite }
						leave_league = corinite
						set_country_flag = corintar_league_flag
					}
					every_country = {
						limit = { has_country_flag = corintar_league_flag }
						join_league = corinite
						clr_country_flag = corintar_league_flag
					}
				}
			}
		}
	}

	corintar_the_fate_of_anbennar = {
		icon = mission_restore_faith_in_the_throne
		position = 13
		required_missions = { corintar_corins_champion }
		
		provinces_to_highlight = {}

		trigger = {
			OR = {
				hre_religion_locked = yes
				NOT = { hre_size = 1 }
				has_global_flag = peace_of_esmaria
			}
		}
		
		effect = {
			# if corintar fought in the league war and won, they get maximum rewards
			# (alt: if diet is called for corinite anbennar, also get max rewards)
			if = {
				limit = {
					has_country_modifier = joined_league_war
					hre_religion = corinite
				}
				add_prestige = 25
				add_adm_power = 100
				add_dip_power = 100
				add_mil_power = 100
			}
			# if corintar fought in the league war and lost, they get some rewards
			else_if = {
				limit = {
					has_country_modifier = joined_league_war 
					NOT = { hre_religion = corinite }
				}
				add_adm_power = 20
				add_dip_power = 20
				add_mil_power = 20
			}
			# if corintar didn't fight, they get almost nothing
			else_if = {
				limit = {
					NOT = { has_country_modifier = joined_league_war }
				}
				add_prestige = 5
			}
			# show maximum rewards otherwise (though this should never actually fire)
			else = {
				tooltip = {
					add_prestige = 25
					add_adm_power = 100
					add_dip_power = 100
					add_mil_power = 100
				}
				custom_tooltip = corintar_rewards_tt
			}
		}
	}

	corintar_a_new_doctrine = {
		icon = hand-picked_bureaucrats
		position = 14
		required_missions = { corintar_the_fate_of_anbennar }
		
		provinces_to_highlight = {
			owner = {
				has_country_flag = corintar_chapter
			}
		}

		trigger = {
			legitimacy_equivalent = 100
			employed_advisor = {
				religion = corinite
				type = theologian
			}
			religion = corinite
			if = {
				limit = { has_dlc = "Common Sense" }
				karma = -33
				NOT = { karma = 33 }
			}
			OR = {
				any_known_country = {
					custom_trigger_tooltip = {
						tooltip = corintar_has_chapter_tt
						has_country_flag = corintar_chapter
					}
					has_spy_network_from = {
						who = ROOT
						value = 50
					}
				}
				any_known_country = {
					custom_trigger_tooltip = {
						tooltip = corintar_has_chapter_tt
						has_country_flag = corintar_chapter
					}
					overlord = {
						has_spy_network_from = {
							who = ROOT
							value = 50
						}
					}
				}
				NOT = {
					any_known_country = {
						custom_trigger_tooltip = {
							tooltip = corintar_has_chapter_tt
							has_country_flag = corintar_chapter
						}
					}
				}
			}
		}
		
		effect = {
			add_country_modifier = {
				name = corintar_theological_debate
				duration = 3650
			}
		}
	}

	corintar_the_reconciliation = {
		icon = catholic_confraternity
		position = 15
		required_missions = {
			corintar_retrain_our_diplomats
			corintar_a_new_doctrine
			corintar_devastation_we_wrought
		}
		
		provinces_to_highlight = {}

		trigger = {
			religion = corinite
			if = {
				limit = { has_dlc = "Common Sense" }
				karma = -10
				NOT = { karma = 10 }
			}
			NOT = { has_country_modifier = corintar_agents_in_training }
			NOT = { has_country_modifier = corintar_theological_debate }
			NOT = { has_country_modifier = corintar_inward_reflection }
		}
		
		effect = {
			add_stability = 1
			if = {
				limit = {
					NOT = { government = theocracy }
				}
				change_government = theocracy
				add_government_reform = monastic_order_reform
			}
			if = {
				limit = {
					NOT = { has_reform = monastic_order_reform }
				}
				add_government_reform = monastic_order_reform
			}
			add_government_reform = corintar_new_corintar
		}
	}

	corintar_corintar_reborn = {
		icon = mission_empire
		position = 16
		required_missions = {
			corintar_escann_restored
			corintar_the_reconciliation
			corintar_escann_defended
		}
		
		provinces_to_highlight = {}

		trigger = {
			custom_trigger_tooltip = {
				tooltip = corintar_escanni_wars_tt
				OR = {
					has_global_flag = escanni_wars_global_flag
					has_global_flag = escanni_wars_end_global_flag
					has_global_flag = escanni_wars_bypass
				}
			}
		}
		
		effect = {
			add_adm_power = 100
			add_dip_power = 100
			add_mil_power = 100
			inner_castanor_region = {
				limit = {
					NOT = { is_core = ROOT }
					NOT = { is_permanent_claim = ROOT }
				}
				add_claim = ROOT
			}
			west_castanor_region = {
				limit = {
					NOT = { is_core = ROOT }
					NOT = { is_permanent_claim = ROOT }
				}
				add_claim = ROOT
			}
			south_castanor_region = {
				limit = {
					NOT = { is_core = ROOT }
					NOT = { is_permanent_claim = ROOT }
				}
				add_claim = ROOT
			}
			cursewood_area = {
				limit = {
					NOT = { is_core = ROOT }
					NOT = { is_permanent_claim = ROOT }
				}
				add_claim = ROOT
			}
			whistlevale_area = {
				limit = {
					NOT = { is_core = ROOT }
					NOT = { is_permanent_claim = ROOT }
				}
				add_claim = ROOT
			}
			if = {
				limit = {
					NOT = { government = theocracy }
				}
				change_government = theocracy
				add_government_reform = monastic_order_reform
			}
			if = {
				limit = {
					NOT = { has_reform = monastic_order_reform }
				}
				add_government_reform = monastic_order_reform
			}
			country_event = { id = flavor_corintar.30 }
			if = {
				limit = { has_global_flag = escanni_wars_global_flag }
				custom_tooltip = corintar_holy_empire_tt
			}
			hidden_effect = {
				set_country_flag = corintar_holy_empire_of_corinsfall
			}
		}
	}
}

corintar_4_missions = {
	slot = 4
	generic = no
	ai = yes
	has_country_shield = yes
	potential = {
		tag = B02 # Corintar
		has_country_flag = formed_corintar_flag
	}

	corintar_united_under_corin = {
		icon = mission_hands_praying
		position = 2
		required_missions = { corintar_a_base_of_operations }
		
		provinces_to_highlight = {}

		trigger = {
			legitimacy_equivalent = 100
			religious_unity = 0.95
			if = {
				limit = {
					has_estate = estate_church
				}
				estate_loyalty = {
					estate = estate_church
					loyalty = 60
				}
			}
		}
		
		effect = {
			upper_nath_area = {
				limit = {
					NOT = { is_core = ROOT }
				}
				add_permanent_claim = ROOT
			}
			add_country_modifier = {
				name = corintar_unified_cause
				duration = 7300
			}
		}
	}

	corintar_reconstruction_missions = {
		icon = mission_early_game_buildings
		position = 3
		required_missions = {
			corintar_corintar_chapters
			corintar_united_under_corin
		}
		
		provinces_to_highlight = {
			is_capital_of = ROOT
			NOT = { has_tax_building_trigger = yes }
		}

		trigger = {
			if = {
				limit = { has_dlc = "Wealth of Nations" }
				OR = {
					has_personal_deity = corin
					religion = corinite
				}
			}
			else = {
				religion = corinite
			}
			capital_scope = {
				has_tax_building_trigger = yes
			}	
		}
		
		effect = {
			add_country_modifier = {
				name = corintar_reconstruction_missions
				duration = 7300
			}
			if = {
				limit = {
					has_dlc = "Common Sense"
					religion = corinite
				}
				custom_tooltip = corintar_enable_guidance_tt
			}
			else_if = {
				limit = {
					has_dlc = "Common Sense"
				}
				custom_tooltip = corintar_enable_guidance_future_tt
			}
			hidden_effect = {
				set_country_flag = corintar_guidance
			}
		}
	}

	corintar_opening_orc_relations = {
		icon = trade_with_the_natives
		position = 4
		required_missions = { corintar_reconstruction_missions }
		
		provinces_to_highlight = {
			owner = {
				primary_culture = green_orc
				primary_culture = gray_orc
				primary_culture = grombar_orc
			}
		}

		trigger = {
			custom_trigger_tooltip = {
				tooltip = corintar_orc_tolerance_tt
				check_variable = {
					which = orcish_race_tolerance
					value = 30
				}
				any_owned_province = {
					OR = {
						has_integrated_orcish_pop_trigger = yes
						has_coexisting_orcish_pop_trigger = yes
					}
				}
			}
			if = {
				limit = {
					calc_true_if = {
						all_known_country = {
							OR = {
								primary_culture = green_orc
								primary_culture = gray_orc
								primary_culture = grombar_orc
							}
						}
						amount = 2
					}
				}
				calc_true_if = {
					all_known_country = {
						OR = {
							primary_culture = green_orc
							primary_culture = gray_orc
							primary_culture = grombar_orc
						}
						custom_trigger_tooltip = {
							tooltip = corintar_max_improve_relations_tt
							has_opinion_modifier = {
								who = ROOT
								modifier = improved_relation
								value = 100
							}
						}
					}
					amount = 2
				}
			}
		}
		
		effect = {
			small_increase_of_orcish_tolerance_effect = yes
			if {
				limit = {
					OR = {
						is_rival = Z18 # Frozenmaw
						is_enemy = Z18
						is_rival = Z50 # Grombar
						is_enemy = Z50
					}
				}
				add_dip_power = 100
			}
			else = {
				add_dip_power = 50
				if = {
					limit = { exists = Z18 }
					add_historical_friend = Z18
				}
				else = {
					hidden_effect = { add_historical_friend = Z18 }
				}
				if = {
					limit = { exists = Z50 }
					add_historical_friend = Z50
				}
				else = {
					hidden_effect = { add_historical_friend = Z50 }
				}
			}
		}
	}

	corintar_trade_with_grombar = {
		icon = secure_the_sava
		position = 5
		required_missions = {
			corintar_opening_orc_relations
			corintar_hematite_mines
		}
		
		provinces_to_highlight = {
			corintar_establish_chapter_highlight = {
				tag = Z50			# Grombar
				capital = 740		# Bal Vroren
			}
		}

		trigger = {
			corintar_establish_chapter_trigger = {
				tag = Z50
				capital = 740
			}
		}
		
		effect = {
			corintar_establish_chapter_effect = {
				tag = Z50
				capital = 740
				chapter = corintar_northern_corintar_chapter
				modifier = corintar_northern_trade_route
				lore = flavor_corintar.18
			}
		}
	}

	corintar_into_the_woods = {
		icon = mission_control_the_desh
		position = 6
		required_missions = {
			corintar_trade_with_grombar
			corintar_break_the_bladebreakers
		}
		
		provinces_to_highlight = {
			OR = {
				area = clouded_wood_area
				area = sarwood_area
			}
			OR = {
				NOT = { owned_by = ROOT }
				devastation = 1
				NOT = { religion = corinite }
			}
		}

		trigger = {
			clouded_wood_area = {
				type = all
				owned_by = ROOT
				NOT = { devastation = 1 }
				religion = corinite
			}
			sarwood_area = {
				type = all
				owned_by = ROOT
				NOT = { devastation = 1 }
				religion = corinite
			}
			clouded_wood_area = {
				type = any
				fort_level = 2
			}
			sarwood_area = {
				type = any
				fort_level = 2
			}
			calc_true_if = {
				all_owned_province = {
					has_orcish_minority_trigger = yes
					religion = corinite
					base_tax = 2
					base_manpower = 2
					base_production = 2
				}
				amount = 3
			}
		}
		
		effect = {
			nortessord_area = {
				limit = {
					NOT = { is_core = ROOT }
				}
				add_permanent_claim = ROOT
			}
			country_event = {
				id = flavor_corintar.32
			}
			corintar_refresh_reconstruction = yes
		}
	}

	corintar_rise_of_the_redtusks = {
		icon = mission_afghan_frontier
		position = 7
		required_missions = { corintar_into_the_woods }
		
		provinces_to_highlight = {
			area = nortessord_area
			OR = {
				NOT = { owned_by = ROOT }
				NOT = { religion = corinite }
				devastation = 1
			}
		}

		trigger = {
			nortessord_area = {
				type = all
				owned_by = ROOT
				religion = corinite
				NOT = { devastation = 1 }
			}
			nortessord_area = {
				type = any
				fort_level = 2
				has_tax_building_trigger = yes
			}
			any_owned_province = {
				culture = redtusk_orc
			}
			calc_true_if = {
				all_owned_province = {
					OR = {
						area = clouded_wood_area
						area = sarwood_area
						area = nortessord_area
					}
					culture_group = orcish
					religion = corinite
					NOT = { nationalism = 1 }
				}
				amount = 3
			}
		}
		
		effect = {
			custom_tooltip = corintar_redtusk_spread_tt
			hidden_effect = {
				set_country_flag = redtusks_enabled
				country_event = {
					id = flavor_corintar.35
					days = 120
					random = 30
				}
				country_event = {
					id = flavor_corintar.35
					days = 240
					random = 30
				}
				country_event = {
					id = flavor_corintar.35
					days = 360
					random = 30
				}
			}
		}

	}

	corintar_valley_of_the_orcs = {
		icon = the_alpine_wall
		position = 8
		required_missions = { corintar_rise_of_the_redtusks }
		
		provinces_to_highlight = {
			OR = {
				area = clouded_wood_area
				area = sarwood_area
				area = nortessord_area
			}
			OR = {
				NOT = { culture = redtusk_orc }
				AND = {
					has_dlc = "Mandate of Heaven"
					NOT = { is_prosperous = yes }
				}
				AND = {
					NOT = { has_dlc = "Mandate of Heaven" }
					NOT = { development = 10 }
				}
			}
		}

		trigger = {
			if = {
				limit = { has_dlc = "Mandate of Heaven" }
				clouded_wood_area = {
					type = all
					culture = redtusk_orc
					custom_trigger_tooltip = {
						tooltip = corintar_prosperous_tt
						is_prosperous = yes
					}
				}
				sarwood_area = {
					type = all
					culture = redtusk_orc
					custom_trigger_tooltip = {
						tooltip = corintar_prosperous_tt
						is_prosperous = yes
					}
				}
				nortessord_area = {
					type = all
					culture = redtusk_orc
					custom_trigger_tooltip = {
						tooltip = corintar_prosperous_tt
						is_prosperous = yes
					}
				}
			}
			else = {
				clouded_wood_area = {
					type = all
					culture = redtusk_orc
					development = 10
				}
				sarwood_area = {
					type = all
					culture = redtusk_orc
					development = 10
				}
				nortessord_area = {
					type = all
					culture = redtusk_orc
					development = 10
				}
			}
			any_owned_province = {
				culture = redtusk_orc
				development = 25
				NOT = { trade_goods = gold }
			}
		}
		
		effect = {
			random_owned_province = {
				limit = {
					culture = redtusk_orc
					development = 25
					NOT = { trade_goods = gold }
				}
				change_trade_goods = cloth
			}
			custom_tooltip = corintar_redtusk_spread_full_tt
			hidden_effect = {
				clr_country_flag = corintar_redtusks
				set_country_flag = corintar_redtusks_full
				every_owned_province = {
					limit = { has_province_flag = corintar_orc_migration }
					clr_province_flag = corintar_orc_migration
				}
				country_event = {
					id = flavor_corintar.36
					days = 120
					random = 30
				}
				country_event = {
					id = flavor_corintar.36
					days = 240
					random = 30
				}
				country_event = {
					id = flavor_corintar.36
					days = 360
					random = 30
				}
			}
			if = {
				limit = { has_country_modifier = corintar_redtusk_orcs_ii }
				add_country_modifier = {
					name = corintar_redtusk_orcs_iii
					duration = -1
				}
				hidden_effect = {
					remove_country_modifier = corintar_redtusk_orcs_ii
				}
			}
			else = {
				add_country_modifier = {
					name = corintar_redtusk_orcs_ii
					duration = -1
				}
				hidden_effect = {
					remove_country_modifier = corintar_redtusk_orcs_i
				}
			}
		}
	}

	corintar_rabble_reorganized = {
		icon = swiss_mercenaries
		position = 11
		required_missions = { corintar_the_corinite_accord }
		
		provinces_to_highlight = {}

		trigger = {
			if = {
				limit = { corintar_league_war_started = yes }
				# pass
			}
			else_if = {
				limit = { has_dlc = "Cradle of Civilization" }
				num_of_regiments_at_full_drill = 40
			}
			else = {
				num_of_infantry = 40
				has_commanding_three_star = yes
			}
		}
		
		effect = {
			if = {
				limit = {
					NOT = { corintar_league_war_started = yes }
				}
				add_prestige = 10
				add_army_tradition = 10
				add_country_modifier = {
					name = corintar_crusader_battalions
					duration = -1
					desc = corintar_removed_at_league_war_tt
				}
			}
		}
	}

	corintar_devastation_we_wrought = {
		icon = mission_steppe_warriors
		position = 14
		required_missions = { corintar_the_fate_of_anbennar }
		
		provinces_to_highlight = {
			owned_by = ROOT
			devastation = 1
		}

		trigger = {
			stability = 1
			all_owned_province = {
				NOT = { devastation = 1 }
			}
		}
		
		effect = {
			add_country_modifier = {
				name = corintar_inward_reflection
				duration = 3650
			}
		}
	}

	corintar_escann_defended = {
		icon = fortress_of_belgrade
		position = 15
		required_missions = {
			corintar_devastation_we_wrought
			corintar_carmine_red
		}
		
		provinces_to_highlight = {
			owned_by = ROOT
			fort_level = 2
			NOT = { fort_level = 4 }
		}

		trigger = {
			calc_true_if = {
				all_owned_province = {
					fort_level = 4
				}
				amount = 16
			}
			manpower_percentage = 0.50
			NOT = { war_exhaustion = 0.01 }
		}
		
		effect = {
			if = {
				limit = { has_dlc = "Mandate of Heaven" }
				every_owned_province = { 
					limit = { superregion = escann_superregion }
					add_prosperity = 25
				}
			}
			if = {
				limit = {
					mission_completed = corintar_escann_restored
				}
				hidden_effect = {
					remove_country_modifier = corintar_reconstruction
					remove_country_modifier = corintar_reconstruction_improved
				}
				add_country_modifier = {
						name = corintar_reconstruction_permanent
						duration = -1
				}
			}
			else = {
				corintar_refresh_reconstruction = yes
				custom_tooltip = corintar_escann_defended_tt
			}
		}
	}
}

corintar_5_missions = {
	slot = 5
	generic = no
	ai = yes
	has_country_shield = yes
	potential = {
		tag = B02 # Corintar
		has_country_flag = formed_corintar_flag
	}
	
	corintar_lothanes_legacy = {
		icon = the_crown_of_lothair
		position = 1
		required_missions = {}
		
		trigger = {
			OR = {
				custom_trigger_tooltip = {
					tooltip = corintar_bluetusk_funeral_tt
					has_country_flag = corintar_bluetusk_funeral
				}
				is_year = 1535
			}
			
		}
		
		effect = { 
			change_government_reform_progress = 50
			hidden_effect = {
				clr_country_flag = corintar_bluetusk_funeral
			}
		}
	}

	corintar_lumber_shortage = {
		icon = mississippi_company
		position = 3
		required_missions = { corintar_united_under_corin }
		
		provinces_to_highlight = {
			area = upper_nath_area
			OR = {
				NOT = { base_production = 4 }
				devastation = 1
				NOT = { country_or_non_sovereign_subject_holds = ROOT }
				AND = {
					province_id = 855 # Nathwoud
					NOT = { has_production_building_trigger = yes }
					NOT = { fort_level = 2 }
				}
			}
		}

		trigger = {
			upper_nath_area = {
				type = all
				country_or_non_sovereign_subject_holds = ROOT
				NOT = { devastation = 1 }
				base_production = 4
			}
			855 = { # Nathwoud
				fort_level = 2
				has_production_building_trigger = yes
			}
		}
		
		effect = {
			bradescker_area = {
				limit = {
					NOT = { is_core = ROOT }
				}
				add_permanent_claim = ROOT
			}
			855 = { # Nathwoud
				add_base_tax = 1
				add_base_production = 3
			}
			custom_tooltip = corintar_improve_restoration_tt
			corintar_refresh_reconstruction = yes
		}
	}

	corintar_hematite_mines = {
		icon = mission_colonial
		position = 4
		required_missions = {
			corintar_reconstruction_missions
			corintar_lumber_shortage
		}
		
		provinces_to_highlight = {
			province_id = 854 # Bradnath
			OR = {
				NOT = { is_core = ROOT }
				NOT = { has_owner_religion = yes }
				NOT = { has_tax_building_trigger = yes }
				devastation = 1
			}
		}

		trigger = {
			854 = { # Bradnath
				is_core = ROOT
				has_owner_religion = yes
				NOT = { devastation = 1 }
				has_tax_building_trigger = yes
			}
			any_owned_province = {
				has_integrated_dwarven_pop_trigger = yes
			}
		}
		
		effect = {
			coalwoud_area = {
				limit = {
					NOT = { is_core = ROOT }
				}
				add_permanent_claim = ROOT
			}
			ardent_glade_area = {
				limit = {
					NOT = { is_core = ROOT }
				}
				add_permanent_claim = ROOT
			}
			country_event = {
				id = flavor_corintar.37
			}
			corintar_refresh_reconstruction = yes
		}
	}

	corintar_break_the_bladebreakers = {
		icon = the_latin_empire
		position = 5
		required_missions = { corintar_hematite_mines }
		
		provinces_to_highlight = {
			OR = {
				area = coalwoud_area
				area = ardent_glade_area
			}
			OR = {
				NOT = { country_or_non_sovereign_subject_holds = ROOT }
				NOT = { has_owner_religion = yes }
				devastation = 1
			}
		}

		trigger = {
			coalwoud_area = {
				type = all
				country_or_non_sovereign_subject_holds = ROOT
				has_owner_religion = yes
				NOT = { devastation = 1 }
			}
			ardent_glade_area = {
				type = all
				country_or_non_sovereign_subject_holds = ROOT
				has_owner_religion = yes
				NOT = { devastation = 1 }
			}
			coalwoud_area = {
				type = any
				fort_level = 2
				has_tax_building_trigger = yes
			}
			ardent_glade_area = {
				type = any
				fort_level = 2
				has_tax_building_trigger = yes
			}
		}
		
		effect = {
			steelhyl_area = {
				limit = {
					NOT = { is_core = ROOT }
				}
				add_permanent_claim = ROOT
			}
			random_owned_province = {
				limit = {
					area = coalwoud_area
					fort_level = 2
					has_tax_building_trigger = yes
				}
				add_base_tax = 1
				add_base_manpower = 1
			}
			random_owned_province = {
				limit = {
					area = ardent_glade_area
					fort_level = 2
					has_tax_building_trigger = yes
				}
				add_base_tax = 1
				add_base_manpower = 1
			}
			country_event = {
				id = flavor_corintar.31
			}
			create_general = {
				tradition = 50
				culture = green_orc
			}
			corintar_refresh_reconstruction = yes
		}
	}

	corintar_seal_the_serpentspine = {
		icon = alpine_defenses
		position = 6
		required_missions = { corintar_break_the_bladebreakers }
		
		provinces_to_highlight = {
			area = steelhyl_area
			OR = {
				devastation = 1
				NOT = { religion = corinite }
				AND = {
					province_id = 860 # Steelhyl
					OR = {
						NOT = { fort_level = 2 }
						NOT = { has_building = ramparts }
					}
				}
			}
		}

		trigger = {
			steelhyl_area = {
				type = all
				country_or_non_sovereign_subject_holds = ROOT
				NOT = { devastation = 1 }
				religion = corinite
			}
			860 = { # Steelhyl
				fort_level = 2
				has_building = ramparts
			}
		}
		
		effect = {
			serpentsmarck_area = {
				limit = {
					NOT = { is_core = ROOT }
				}
				add_permanent_claim = ROOT
			}
			860 = { # Steelhyl
				add_base_tax = 1
				add_base_manpower = 3
			}
			corintar_refresh_reconstruction = yes
		}
	}

	corintar_the_mountain_pass = {
		icon = claim_the_borderlands
		position = 7
		required_missions = { corintar_seal_the_serpentspine }
		
		provinces_to_highlight = {
			area = serpentsmarck_area
			OR = {
				NOT = { country_or_non_sovereign_subject_holds = ROOT }
				devastation = 1
				NOT = { religion = corinite }
			}
		}

		trigger = {
			serpentsmarck_area = {
				type = all
				country_or_non_sovereign_subject_holds = ROOT
				NOT = { devastation = 1 }
				religion = corinite
			}
			serpentsmarck_area = {
				type = any
				fort_level = 2
				has_tax_building_trigger = yes
			}
		}
		
		effect = {
			trialmount_area = {
				limit = {
					NOT = { is_core = ROOT }
				}
				add_permanent_claim = ROOT
			}
			northyl_area = {
				limit = {
					NOT = { is_core = ROOT }
				}
				add_permanent_claim = ROOT
			}
			serpentsmarck_area = {
				add_base_production = 1
			}
			corintar_refresh_reconstruction = yes
		}
	}

	corintar_abolition_enforced = {
		icon = give_him_back_his_legions
		position = 8
		required_missions = {
			corintar_rise_of_the_redtusks
			corintar_the_mountain_pass
		}
		
		provinces_to_highlight = {
			OR = {
				AND = {
					OR = {
						province_id = 858 # Shatterwood
						province_id = 846 # Serpentswic
					}
					OR = {
						if = {
							limit = { has_dlc = "Dharma" }
							NOT = { province_has_center_of_trade_of_level = 2 }
						}
						else = {
							NOT = { development = 15 }
						}
						NOT = { religion = corinite }
					}
				}
				if = {
					limit = {
						ROOT = {
							AND = {
								NOT = { has_country_flag = corintar_ended_purge }
								NOT = {
									check_variable = {
										corintar_orcish_purges
										value = 5
									}
								}
							}
						}
					}
					owner = {
						AND = {
							capital_scope = {
								superregion = escann_superregion
							}
							has_country_modifier = racial_pop_orcish_purge
						}
					}
				}
			}
		}

		trigger = {
			custom_trigger_tooltip = {
				tooltip = corintar_not_purging_tt
				NOT = { has_country_modifier = racial_pop_orcish_purge }
				NOT = { has_country_modifier = racial_pop_orcish_expulsion }
			}
			OR = {
				# no purges in escann
				custom_trigger_tooltip = {
					tooltip = corintar_no_purge_tt
					NOT = {
						any_known_country = {
							has_country_modifier = racial_pop_orcish_purge
							capital_scope = {
								superregion = escann_superregion
							}
						}
					}
				}
				# ended 5 purges
				if = {
					limit = {
						has_country_flag = corintar_ended_purge
					}
					custom_trigger_tooltip = {
						tooltip = corintar_ended_purge_tt
						check_variable = {
							which = corintar_orcish_purges
							value = 5
						}
					}
				}
				# localize tooltip properly if corintar hasn't ended any purges
				else = {
					custom_trigger_tooltip = {
						tooltip = corintar_ended_purge_0_tt
						NOT = { always = yes }
					}
				}
			}
			if = {
				limit = { has_dlc = "Dharma" }
				858 = { # Shatterwood
					province_has_center_of_trade_of_level = 2
					religion = corinite
				}
				846 = { # Serpentswic
					province_has_center_of_trade_of_level = 2
					religion = corinite
				}
			}
			else = {
				858 = { # Shatterwood
					development = 15
					religion = corinite
				}
				846 = { # Serpentswic
					development = 15
					religion = corinite
				}
				treasury = 200
			}

		}
		
		effect = {
			if = {
				limit = {
					NOT = { has_dlc = "Dharma" }
				}
				add_treasury = -200
				846 = { # Serpentswic
					add_center_of_trade_level = 1
				}
			}
			858 = { # Shatterwood
				change_culture = redtusk_orc
			}
			846 = { # Serpentswic
				change_culture = redtusk_orc
			}
			define_advisor = {
				type = trader
				skill = 3
				culture = redtusk_orc
				religion = corinite
				discount = yes
			}
			define_advisor = {
				type = diplomat
				skill = 3
				culture = redtusk_orc
				religion = corinite
				discount = yes
			}
			add_country_modifier = {
				name = "the_abolish_slavery_act"
				duration = -1
			}
			hidden_effect = {
				every_owned_province = {
					limit = { trade_goods = slaves }
					change_trade_goods = unknown
					remove_building = tradecompany
				}
			}
			if = {
				limit = { has_country_modifier = corintar_redtusk_orcs_ii }
				add_country_modifier = {
					name = corintar_redtusk_orcs_iii
					duration = -1
				}
				hidden_effect = {
					remove_country_modifier = corintar_redtusk_orcs_ii
				}
			}
			else = {
				add_country_modifier = {
					name = corintar_redtusk_orcs_ii
					duration = -1
				}
				hidden_effect = {
					remove_country_modifier = corintar_redtusk_orcs_i
				}
			}
		}
	}

	corintar_orcish_resurgence = {
		icon = public_works
		position = 9
		required_missions = {
			corintar_valley_of_the_orcs
			corintar_abolition_enforced
		}
		
		provinces_to_highlight = {
			OR = {
				area = clouded_wood_area
				area = sarwood_area
				area = nortessord_area
			}
			NOT = { development = 10 }
		}
		
		trigger = {
			clouded_wood_area = {
				type = all
				development = 10
			}
			sarwood_area = {
				type = all
				development = 10
			}
			nortessord_area = {
				type = all
				development = 10
			}
			calc_true_if = {
				all_owned_province = {
					has_integrated_orcish_minority_trigger = yes
				}
				amount = 8
			}
			development_in_provinces = {
				value = 200
				culture_group = orcish
			}
		}
		
		effect = {
			custom_tooltip = corintar_orc_production_tt
			hidden_effect = {
				corintar_orc_production = yes
				corintar_orc_production = yes
				corintar_orc_production = yes
				corintar_orc_production = yes
				corintar_orc_production = yes
				corintar_orc_production = yes
				corintar_orc_production = yes
				corintar_orc_production = yes
				every_owned_province = {
					clr_province_flag = corintar_flag
				}
			}
			add_country_modifier = {
				name = corintar_redtusk_orcs_iv
				duration = -1
			}
			hidden_effect = {
				remove_country_modifier = corintar_redtusk_orcs_iii
			}
		}
	}

	corintar_carmine_red = {
		icon = mission_gujarati_textiles
		position = 14
		required_missions = { corintar_orcish_resurgence }
		
		provinces_to_highlight = {
			OR = {
				AND = {
					owned_by = ROOT
					OR = {
						has_terrain = woods
						has_terrain = forest
					}
					NOT = { base_production = 2 }
				}
				AND = {
					OR = {
						has_terrain = woods
						has_terrain = forest
					}
					NOT = { owned_by = ROOT }
				}
			}
		}
		
		trigger = {
			army_size = 80
			calc_true_if = {
				all_owned_province = {
					OR = {
						has_terrain = woods
						has_terrain = forest
					}
					superregion = escann_superregion
				}
				amount = 15
			}
		}
		
		effect = {
			capital_scope = {
				change_trade_goods = dyes
				add_province_modifier = { 
					name = corintar_carmine_red
					duration = -1  
				}
			}
			custom_tooltip = corintar_woods_loss_tt
			hidden_effect = {
				corintar_deforestation = yes
				corintar_deforestation = yes
				corintar_deforestation = yes
				corintar_deforestation = yes
				corintar_deforestation = yes
				corintar_deforestation = yes
				corintar_deforestation = yes
				corintar_deforestation = yes
				corintar_deforestation = yes
				corintar_deforestation = yes
				corintar_deforestation = yes
				corintar_deforestation = yes
				corintar_deforestation = yes
				corintar_deforestation = yes
				corintar_deforestation = yes
			}
			custom_tooltip = corintar_redtusk_spread_fast_tt
		}

		
		
	}

}