

deranne_slot1 = {
	slot = 1
	generic = no
	ai = yes
	potential = {
		tag = A02
	}
	has_country_shield = yes
	
	deranne_recover_from_lilac_wars = {
		icon = mission_high_income
		required_missions = { }
		position = 1
		
		trigger = {
				stability = 2
			}
			
		effect = {
			add_country_modifier = {
				name = "building_spree"
				duration = 9125
			}
		}
	}
	
	deranne_the_march_of_ording = {
		icon = mission_recruit_the_cossacks
		required_missions = { deranne_recover_from_lilac_wars deranne_the_winelords }
		position = 2
		
		provinces_to_highlight = {
			province_id = 75 #High Ording
			province_id = 92 #East Ording
		}
		trigger = {
			75 = {
				owned_by = ROOT
			}
			92 = {
				owned_by = ROOT
			}
		}
		effect = {
			add_treasury = 200
			add_army_tradition = 25
			add_mil_power = 25
			add_adm_power = 25
			add_dip_power = 25
			northern_flats_area = {
				limit = {
					NOT = { is_core = ROOT }
					NOT = { owned_by = ROOT }
				}
				add_permanent_claim = ROOT
			}
		}
	}
	
	deranne_militarization_of_the_march = {
		icon = mission_conquer_novgorod
		required_missions = { deranne_the_march_of_ording }
		position = 3
		
		trigger = {
			treasury = 50
			owns_core_province = 102
			owns_core_province = 75
			owns_core_province = 92
			75 = {
				development = 15
			}
			92 = {
				development = 10
			}
			102 = {
				development = 10
			}
		}
		
		effect = {
			darom_area = {
				limit = {
					NOT = { is_core = ROOT }
					NOT = { owned_by = ROOT }
				}
				add_permanent_claim = ROOT
			}
			add_treasury = -50
			add_manpower = 2.5
			add_country_modifier = {
				name = "thriving_arms_industry"
				duration = 9125 #25 years
			}
			75 = {
				add_province_modifier = {
					name = "bulwark_fortifications"
					duration = -1
				}
			}
		}
	}
	deranne_secure_darom = {
		icon = mission_cannons_firing
		required_missions = { deranne_militarization_of_the_march }
		position = 4

		provinces_to_highlight = {
			area = darom_area
			NOT = {
				country_or_non_sovereign_subject_holds = ROOT
			}
		}
		trigger = {
			darom_area = {
				type = all
				country_or_non_sovereign_subject_holds = ROOT
			}
		}
		effect = {
			shrouded_coast_area = {
				limit = {
					NOT = { is_core = ROOT }
					NOT = { owned_by = ROOT }
				}
				add_permanent_claim = ROOT
			}
		}
	}
	
	deranne_into_the_shrouded_coast = {
		icon = mission_unite_home_region
		required_missions = { deranne_secure_darom }
		position = 5

		provinces_to_highlight = {
			area = shrouded_coast_area
			NOT = {
				country_or_non_sovereign_subject_holds = ROOT
			}
		}
		trigger = {
			shrouded_coast_area = {
				type = all
				country_or_non_sovereign_subject_holds = ROOT
			}
		}
		effect = {
			sorncost_vines_area = {
				limit = {
					NOT = { is_core = ROOT }
					NOT = { owned_by = ROOT }
				}
				add_permanent_claim = ROOT
			}
		}
	}
	
	deranne_land_of_the_southern_wine = {
		icon = mission_conquer_5_states
		required_missions = { deranne_into_the_shrouded_coast }
		position = 6

		provinces_to_highlight = {
			OR = {
				area = sorncost_vines_area
			}
			NOT = {
				country_or_non_sovereign_subject_holds = ROOT
			}
		}
		trigger = {
			sorncost_vines_area = {
				type = all
				country_or_non_sovereign_subject_holds = ROOT
			}
		}
		effect = {
			add_country_modifier = {
				name = "hegemonic_ambition"
				duration = 9125 #25 years
			}
		}
	}
	
	deranne_new_adea_naval_school_mission = {
		icon = mission_spanish_armada
		required_missions = { deranne_land_of_the_southern_wine }
		position = 7
		
		provinces_to_highlight = {
			province_id = 82
		}
		
		trigger = {
			treasury = 350
			adm_power = 100
			dip_power = 100
			mil_power = 100
			owns = 82
			82 = {
				development = 25
				has_building = drydock
				has_building = grand_shipyard
			}
		}
		effect = {
			add_treasury = -350
			add_adm_power = -100
			add_dip_power = -100
			add_mil_power = -100
			82 = {	
				add_province_modifier = {
					name = "deranne_new_adea_naval_school_prov"
					duration = -1
				}
			}
			add_country_modifier = {
				name = "deranne_new_adea_naval_school"
				duration = -1
			}
		}
	}
	
	deranne_hegemony_of_lencenor = {
		icon = mission_conquer_romania
		required_missions = { deranne_reaver_wine }
		position = 8
		
		provinces_to_highlight = {
			OR = {
				area = southern_flats_area
				area = sornhills_area
				area = lower_winebay_area
			}
			NOT = {
				country_or_non_sovereign_subject_holds = ROOT
			}
		}
		trigger = {
			southern_flats_area = {
				type = all
				country_or_non_sovereign_subject_holds = ROOT
			}
			sornhills_area = {
				type = all
				country_or_non_sovereign_subject_holds = ROOT
			}
			lower_winebay_area = {
				type = all
				country_or_non_sovereign_subject_holds = ROOT
			}
		}
		effect = {
			add_adm_power = 100
			add_mil_power = 100
			add_dip_power = 100
			add_country_modifier = {
				name = "deranne_southern_hegemony"
				duration = -1
			}
		}
	}
}

deranne_slot2 = {
	slot = 2
	generic = no
	ai = yes
	potential = {
		tag = A02
	}
	has_country_shield = yes
	
	deranne_seaflower_knights = {
		icon = mission_protect_albania
		required_missions = { deranne_recover_from_lilac_wars deranne_the_winelords }
		position = 2
		
		trigger = {
			num_of_cavalry = 6
		}
		
		effect = {
			add_army_tradition = 10
			add_country_modifier = {
				name = "deranne_seaflower_knights_mod"
				duration = 9125
			}
		}
	}
	
	deranne_secure_upper_winebay = {
		icon = mission_assemble_an_army
		required_missions = { deranne_seaflower_knights }
		position = 3
		
		provinces_to_highlight = {
			OR = {
				area = upper_winebay_area
			}
			NOT = {
				country_or_non_sovereign_subject_holds = ROOT
			}
		}
		
		trigger = {
			upper_winebay_area = {
				type = all
				country_or_non_sovereign_subject_holds = ROOT
			}
		}
		
		effect = {
			add_country_modifier = {
				name = "merchant_navy"
				duration = 5475
			}
			add_dip_power = 100
			add_mercantilism = 5
		}
	}
	
	deranne_fortify_winebay = {
		icon = mission_hanseatic_city
		required_missions = { deranne_secure_upper_winebay }
		position = 4
		
		trigger = {
			73 = {
				fort_level = 2
				owned_by = ROOT
			}
			treasury = 200
			adm_power = 100
		}
		
		effect = {
			73 = {
				add_province_modifier = {
				name = "deranne_winebay_bastion"
				duration = -1
				}
			}
			add_mil_power = 50
			add_adm_power = -100
			add_treasury = -200
			lower_bloodwine_area = {
				limit = {
					NOT = { is_core = ROOT }
					NOT = { owned_by = ROOT }
				}
				add_permanent_claim = ROOT
			}
		}
	}
	deranne_bloody_wine = {
		icon = mission_crusade_for_varna
		required_missions = {deranne_fortify_winebay }
		position = 5
		
		provinces_to_highlight = {
			OR = {
				area = lower_bloodwine_area
			}
			NOT = {
				country_or_non_sovereign_subject_holds = ROOT
			}
		}
		
		trigger = {
			lower_bloodwine_area = {
				type = all
				country_or_non_sovereign_subject_holds = ROOT
			}
		}
		
		effect = {
			add_country_modifier = {
				name = "hegemonic_ambition"
				duration = 9125
				name = "expansionist_country"
				duration = 9125
				name = "army_enthusiasm"
				duration = 9125
			}
		}
	}
	
	deranne_reaver_wine = {
		icon = mission_ottoman_harem
		required_missions = { deranne_bloody_wine deranne_land_of_the_southern_wine }
		position = 7
		
		trigger = {
			wine = 7
		}
		
		effect = {
			add_years_of_income = -.5
			add_adm_power = -50
			add_dip_power = -50
			add_mil_power = -50
			random_owned_province = {
				limit = {
					trade_goods = wine
				}
				add_base_tax = 1
				add_base_production = 2
				add_base_manpower = 1
				add_province_modifier = {
					name = "deranne_reaver_wine_mod"
					duration = -1
				}
			}
			random_owned_province = {
				limit = {
					trade_goods = wine
				}
				add_base_tax = 1
				add_base_production = 2
				add_base_manpower = 1
				add_province_modifier = {
					name = "deranne_reaver_wine_mod"
					duration = -1
				}
			}
			random_owned_province = {
				limit = {
					trade_goods = wine
				}
				add_base_tax = 1
				add_base_production = 2
				add_base_manpower = 1
				add_province_modifier = {
					name = "deranne_reaver_wine_mod"
					duration = -1
				}
			}
		}
	}
	
	deranne_breadbasket_of_southroy = {
		icon = mission_rb_import_potatoes
		required_missions = { deranne_gateway_to_the_west }
		position = 8
		
		provinces_to_highlight = {
			area = southroy_area
		}
		trigger = {
			southroy_area = {
				type = all
				country_or_non_sovereign_subject_holds = ROOT
			}
			treasury = 400
			adm_power = 50
			dip_power = 50
			mil_power = 50
		}
		effect = {
			add_treasury = -400
			add_adm_power = -50
			add_dip_power = -50
			add_mil_power = -50
			123 = {
				add_base_tax = 2
				add_base_manpower = 2
				add_base_production = 2
			}
			124 = {
				add_base_tax = 2
				add_base_manpower = 2
				add_base_production = 2
			}
			125 = {
				add_base_tax = 2
				add_base_manpower = 2
				add_base_production = 2
			}
			128 = {
				add_base_tax = 2
				add_base_manpower = 2
				add_base_production = 2
			}
		}
	}
	
	deranne_army_of_deranne = {
		icon = mission_weather_the_troubles
		required_missions = { deranne_breadbasket_of_southroy }
		position = 9
		
		trigger = {
			treasury = 400
			mil_power = 150
			adm_power = 100
			army_size = 80
		}
		effect = {
		add_treasury = -400
		add_adm_power = -100
		add_mil_power = -150
			add_country_modifier = {
				name = "deranne_army_of_deranne_mod"
				duration = -1
			}
		}
	}
}

#Internal
deranne_slot3 = {
	slot = 3
	generic = no
	ai = yes
	potential = {
		tag = A02
	}
	has_country_shield = yes
	
	deranne_the_winelords = {
		icon = mission_alliances
		required_missions = { }
		position = 1
		
		trigger = {
			if = { 
				limit = {
					exists = A18
						A18 = {
							NOT = {
								is_subject = yes
							}
						}
					}
				OR = {
					A18 = { 
						alliance_with = ROOT
						has_opinion = {
							who = ROOT
							value = 150
						}
					}
					AND = {
						is_rival = A18
						A18 = {
							OR = {
								has_opinion_modifier = {
									who = ROOT
									modifier = insulted
								}
								has_opinion_modifier = {
									who = ROOT
									modifier = scornfully_insulted
								}
							}
						}
					}
				}
			}
			if = { 
				limit = {
					exists = A15
						A15 = {
							NOT = {
								is_subject = yes
							}
						}
					}
				OR = {
					A15 = { 
						alliance_with = ROOT
						has_opinion = {
							who = ROOT
							value = 150
						}
					}
					AND = {
						is_rival = A15
						A15 = {
							OR = {
								has_opinion_modifier = {
									who = ROOT
									modifier = insulted
								}
								has_opinion_modifier = {
									who = ROOT
									modifier = scornfully_insulted
								}
							}
						}
					}
				}
			}
			if = { 
				limit = {
					exists = A16
						A16 = {
							NOT = {
								is_subject = yes
							}
						}
					}
				OR = {
					A16 = { 
						alliance_with = ROOT
						has_opinion = {
							who = ROOT
							value = 150
						}
					}
					AND = {
						is_rival = A16
						A16 = {
							OR = {
								has_opinion_modifier = {
									who = ROOT
									modifier = insulted
								}
								has_opinion_modifier = {
									who = ROOT
									modifier = scornfully_insulted
								}
							}
						}
					}
				}
			}
		}
		effect = {
			add_prestige = 25
			add_country_modifier = {
				name = "influential_diplomacy"
				duration = 9125
			}
		}
	}
	
	deranne_seaflower_levy = {
		icon = mission_pf_soldier
		required_missions = {deranne_recover_from_lilac_wars deranne_the_winelords }
		position = 2
		
		trigger = {
			army_size_percentage = 1
		}
		effect = {
			add_country_modifier = {
				name = "deranne_seaflower_levy_mod"
				duration = 9125
			}
			southroy_area = {
				limit = {
					NOT = { is_core = ROOT }
					NOT = { owned_by = ROOT }
				}
				add_permanent_claim = ROOT
			}
		}
	}
	deranne_conquer_southroy = {
		icon = mission_unite_home_region
		required_missions = { deranne_seaflower_levy }
		position = 3
		
		provinces_to_highlight = {
			OR = {
				area = southroy_area
			}
			NOT = {
				country_or_non_sovereign_subject_holds = ROOT
			}
		}
		trigger = {
			southroy_area = {
				type = all
				country_or_non_sovereign_subject_holds = ROOT
			}
		}
		effect = {
			if = {
				limit = {
					126 = {
						NOT = { is_core = ROOT }
						NOT = { owned_by = ROOT }
					}
				}
				126 = {
					add_permanent_claim = ROOT
				}
			}
		}
	}
	
	deranne_conquest_of_portnamm = {
		icon = mission_sea_battles
		required_missions = { deranne_conquer_southroy }
		position = 4
		
		provinces_to_highlight = {
			province_id = 126
			NOT = { owned_by = ROOT }
		}
		trigger = {
			126 = {
				owned_by = ROOT
			}
		}
		effect = {
			add_country_modifier = {
				name = "merchant_navy"
				duration = 9125 #25 years
			}
		}
	}
	
	deranne_gnome_home = {
		icon = mission_settlers_north_america
		required_missions = { deranne_conquest_of_portnamm }
		position = 5
		
		provinces_to_highlight = {
			province_id = 126
		}
		
		trigger = {
			126 = {
				culture = ROOT
			}
			any_province = {
				is_city = yes
				OR = {
					colonial_region = colonial_endralliande
					colonial_region = colonial_isles
					colonial_region = colonial_dalaire
					colonial_region = colonial_noruin
				}
				culture = creek_gnome
			}
		}
		effect = {
			add_dip_power = 100
			add_country_modifier = {
				name = "colonial_enthusiasm"
				duration = 5475
			}
		}
	}
	
	deranne_dragon_coast_trade = {
		icon = mission_rb_scottish_north_sea_trade
		required_missions = { deranne_gnome_home }
		position = 6
		
		provinces_to_highlight = {
			region = dragon_coast_region
		}
		
		trigger = {
			1294 = {
				is_strongest_trade_power = ROOT
			}
		}
		
		effect = {
			add_mercantilism = 5
			169 = {
				add_permanent_claim = ROOT
			}
			146 = {
				add_permanent_claim = ROOT
			}
			177 = {
				add_permanent_claim = ROOT
			}
		}
	}
	
	deranne_reaver_rending = {
		icon = mission_steppe_warriors
		required_missions = { deranne_dragon_coast_trade }
		position = 7
		
		provinces_to_highlight = {
			OR = {
				area = iochand_area
				area = reaver_coast_area
			}
			NOT = {
				country_or_non_sovereign_subject_holds = ROOT
			}
		}
		
		trigger = {
			iochand_area = {
				type = all
				country_or_non_sovereign_subject_holds = ROOT
			}
			reaver_coast_area = {
				type = all
				country_or_non_sovereign_subject_holds = ROOT
			}
		}
		
		effect = {
			add_country_modifier = {
				name = "deranne_reaver_conquest"
				duration = 5475
			}
		}
	}
	
	deranne_aelvar_manufactory = {
		icon = mission_have_manufactories
		required_missions = { deranne_gateway_to_the_west } 
		position = 8
		
		provinces_to_highlight = {
			province_id = 110
		}
		
		trigger = {
			owns = 110
			110 = {
				has_manufactory_trigger = yes
			}
		}

		effect = {
			110 = {
				add_base_production = 3
			}
			add_country_modifier = {
				name = "deranne_aelvar_wood"
				duration = -1 #forever
			}
		}
	}
	
	deranne_derannic_armada = {
		icon = mission_establish_high_seas_navy
		required_missions = { deranne_aelvar_manufactory }
		position = 9
		
		trigger = { 
			OR = {
				num_of_heavy_ship = 30
			}
		}
		effect = {
			add_country_modifier = {
				name = "naval_enthusiasm_mission"
				duration = 9125 #25 years
			}
		}
	}
}

#Colonial Internal
deranne_slot4 = {
	slot = 4
	generic = no
	ai = yes
	potential = {
		tag = A02
	}
	has_country_shield = yes
	
	deranne_rediscovery_of_aelantir = {
		icon = mission_sea_battles
		required_missions = {  }
		position = 1
		trigger = {
			custom_trigger_tooltip = {
				tooltip = aelantir_discovery.tooltip
				colonial_endralliande = {
					has_discovered = ROOT
				}
			}
		}

		effect = {
			add_country_modifier = {
				name = "colonial_enthusiasm"
				duration = 7300
			}
		}
	}
	
	deranne_colonize_endralliande = {
		icon = mission_dominate_home_trade_node
		required_missions = { deranne_rediscovery_of_aelantir }
		position = 3
		provinces_to_highlight = {
			colonial_region = colonial_endralliande
			NOT = { country_or_non_sovereign_subject_holds = ROOT }
			has_discovered = yes
		}
		
		trigger = {
			custom_trigger_tooltip = {
				tooltip = tooltip_colonize_endralliande
				num_of_provinces_owned_or_owned_by_non_sovereign_subjects_with = {
					value = 1
					colonial_region = colonial_endralliande
					is_city = yes
				}
			}
		}
		
		effect = {
			add_prestige = 15
			add_country_modifier = {
				name = "deranne_springboard"
				duration = 5475
			}
		}
	}
	
	deranne_colonize_dalaire = {
		icon = mission_conquer_riga
		required_missions = { deranne_colonize_endralliande }
		position = 5
		provinces_to_highlight = {
			colonial_region = colonial_dalaire
			NOT = { country_or_non_sovereign_subject_holds = ROOT }
			has_discovered = yes
		}
		
		trigger = {
			num_of_provinces_owned_or_owned_by_non_sovereign_subjects_with = {
				value = 1
				colonial_region = colonial_dalaire
				is_city = yes
			}
		}
		
		effect = {
			add_prestige = 25
			add_country_modifier = {
				name = "the_unknown_frontier"
				duration = 5475
			}
		}
	}
	
	
	deranne_gateway_to_the_west = {
		icon = mission_early_game_buildings
		required_missions = { deranne_colonize_dalaire } 
		position = 7
		
		provinces_to_highlight = {
			province_id = 112
		}
		
		trigger = {
			owns = 112
			112 = {
				province_has_center_of_trade_of_level = 2
			}
		}

		effect = {
			112 = {
				add_base_production = 2
				add_base_manpower = 2
				add_base_tax = 2
			}
		}
	}
	
	deranne_establish_derannport = {
		icon = mission_galleys_in_port
		required_missions = { 
			deranne_gateway_to_the_west
		}
		position = 8
		provinces_to_highlight = {
			region = trollsbay_region
			NOT = { country_or_non_sovereign_subject_holds = ROOT }
			has_discovered = yes
		}
		
		trigger = {
			custom_trigger_tooltip = {
				tooltip = miss_est_derannport
				num_of_provinces_owned_or_owned_by_non_sovereign_subjects_with = {
					value = 1
					region = trollsbay_region
					is_city = yes
				}
			}
		}
		
		effect = {
			random_owned_province = {
				limit = { region = trollsbay_region }
				change_province_name = "Derannport"
				rename_capital = "Derannport"
				add_base_production = 2
				add_base_tax = 2
			}
		}
	}
	
	deranne_greater_derannport = {
		icon = mission_sea_battles
		required_missions = { deranne_establish_derannport }
		position = 9
		provinces_to_highlight = {
			colonial_region = colonial_noruin
			NOT = { country_or_non_sovereign_subject_holds = ROOT }
		}
		
		trigger = {
			custom_trigger_tooltip = {
				tooltip = miss_greater_derannport
				num_of_provinces_owned_or_owned_by_non_sovereign_subjects_with = {
					value = 5
					colonial_region = colonial_noruin
					is_city = yes
				}
			}
		}
		
		effect = {
			add_country_modifier = {
				name = "colonial_enthusiasm"
				duration = 7300
			}
			bloodgroves_region = {
				add_permanent_claim = ROOT
			}
		}
	}
}

#Colonial
deranne_slot5 = {
	slot = 5
	generic = no
	ai = yes
	potential = {
		tag = A02
	}
	has_country_shield = yes
	
	deranne_elven_flight = {
		icon = mission_rb_grow_the_channel
		required_missions = { deranne_colonize_dalaire }
		position = 6
		
		provinces_to_highlight = {
			OR = {
				area = venail_area
			}
			NOT = {
				country_or_non_sovereign_subject_holds = ROOT
			}
		}
		trigger = {
			num_of_provinces_owned_or_owned_by_non_sovereign_subjects_with = {
				value = 1
				area = venail_area
				is_city = yes
			}
		}
		effect = {
			venail_area = {
				limit = {
					NOT = {
						owned_by = ROOT
					}
				}
				add_permanent_claim = ROOT
			}
		}
	}
	
	deranne_colonize_ruined_isles = {
		icon = mission_dominate_home_trade_node
		required_missions = { deranne_gateway_to_the_west }
		position = 8
		provinces_to_highlight = {
			colonial_region = colonial_isles
			NOT = { country_or_non_sovereign_subject_holds = ROOT }
			has_discovered = yes
		}
		
		trigger = {
			custom_trigger_tooltip = {
				tooltip = miss_colonize_isles
				num_of_provinces_owned_or_owned_by_non_sovereign_subjects_with = {
					value = 1
					colonial_region = colonial_isles
					is_city = yes
				}
			}
		}
		
		effect = {
			add_country_modifier = {
				name = "colonial_enthusiasm"
				duration = 7300
			}
		}
	}
	
	deranne_seaflower_trade = {
		icon = mission_rb_increase_our_reach
		required_missions = {deranne_colonize_ruined_isles }
		position = 9
		
		trigger = {
			treasury = 200
			dip_power = 100
			num_of_provinces_owned_or_owned_by_non_sovereign_subjects_with = {
					value = 1
					colonial_region = colonial_isles
					is_city = yes
			}
		}
		effect = {
			add_treasury = -200
			add_dip_power = -100
			random_owned_province = {
				limit = {
					colonial_region = colonial_isles
					NOT = { province_has_center_of_trade_of_level = 1 }
				}
				center_of_trade = 1
				change_trade_goods = paper
			}
		}
	}
	
	deranne_soruin = {
		icon = mission_trade_company_region_abroad
		required_missions = { deranne_seaflower_trade }
		position = 10
		
		provinces_to_highlight = {
			colonial_region = colonial_soruin
		}
		
		trigger = {
			num_of_provinces_owned_or_owned_by_non_sovereign_subjects_with = {
			value = 4
			colonial_region = colonial_soruin
			is_city = yes
			}
		}
		
		effect = {
			add_country_modifier = {
				name = "deranne_soruin_colonizer"
				duration = 5475
			}
		}
	}
}