
ernatvir_1 = {
	slot = 1
	generic = no
	ai = yes
	potential = {
		tag = I06
	}
	
	ernatvir_dagrite_repair = {
		icon = mission_rb_central_belt_coal_mining
		ai = yes
		position = 1
		required_missions = {}
		trigger = {
			num_of_owned_provinces_with = {
				value = 3
				trade_goods = copper
				has_building = weapons
			}
		}
		effect = {
			custom_tooltip = ernatvir_dagrite_repair_tooltip
			hidden_effect = {
				random_owned_province = {
					limit = { 
						NOT = { has_province_flag = applied_effect }
						trade_goods = copper
						has_building = weapons 
					}
					add_base_tax = 1
					add_base_production = 1
					add_base_manpower = 1
					set_province_flag = applied_effect
				}
				random_owned_province = {
					limit = { 
						NOT = { has_province_flag = applied_effect }
						trade_goods = copper
						has_building = weapons 
					}
					add_base_tax = 1
					add_base_production = 1
					add_base_manpower = 1
					set_province_flag = applied_effect
				}
				random_owned_province = {
					limit = { 
						NOT = { has_province_flag = applied_effect }
						trade_goods = copper
						has_building = weapons 
					}
					add_base_tax = 1
					add_base_production = 1
					add_base_manpower = 1
					set_province_flag = applied_effect
				}
				every_owned_province = {
					limit = { has_province_flag = applied_effect }
					clr_province_flag = applied_effect
				}
			}
		}
	}
	
	ernatvir_lighting_dwarovar = {
		icon = mission_rb_trinity_college_dublin
		ai = yes
		position = 2
		required_missions = {
			ernatvir_dagrite_repair
		}
		trigger = {
			any_owned_province = {
				has_building = mills
				base_production = 15
				trade_goods = gems
			}
		}
		effect = {
			random_owned_province = {
				limit = {
					has_building = mills
					base_production = 15
					trade_goods = gems
				}

				add_permanent_province_modifier = {
					name = ernatvir_runelight_factory
					duration = -1
				}
			}
		}
	}
	
	ernatvir_advanced_vehicles = {
		icon = saxon_manufacturing
		ai = yes
		position = 3
		required_missions = {
			ernatvir_superior_materials
			ernatvir_lighting_dwarovar
		}
		trigger = {
			any_owned_province = {
				has_building = university
				base_production = 25
				OR = { 
					trade_goods = damestear
					trade_goods = coal 
				}

			}
		}
		effect = {
			add_country_modifier = {
				name = ernatvir_transportation_boom
				duration = 7300
			}
		}
	}
}

ernatvir_2 = {
	slot = 2
	generic = no
	ai = yes
	potential = {
		tag = I06
	}
	
	ernatvir_new_foundries = {
		icon = mission_have_manufactories
		ai = yes
		position = 1
		required_missions = {}
		trigger = {
			num_of_owned_provinces_with = {
				value = 4
				trade_goods = iron
				has_production_building_trigger = yes
			}
		}
		effect = {
			custom_tooltip = ernatvir_new_foundries_tooltip
			hidden_effect = {
				random_owned_province = {
					limit = { 
						trade_goods = iron
						has_production_building_trigger = yes 
						NOT = { has_province_flag = applied_effect }
					}
					add_base_production = 2
					set_province_flag = applied_effect
				}
				random_owned_province = {
					limit = { 
						trade_goods = iron
						has_production_building_trigger = yes 
						NOT = { has_province_flag = applied_effect }
					}
					add_base_production = 2
					set_province_flag = applied_effect
				}
				random_owned_province = {
					limit = { 
						trade_goods = iron
						has_production_building_trigger = yes
						NOT = { has_province_flag = applied_effect }
					}
					add_base_production = 2
					set_province_flag = applied_effect
				}
				random_owned_province = {
					limit = { 
						trade_goods = iron
						has_production_building_trigger = yes
						NOT = { has_province_flag = applied_effect }
					}
					add_base_production = 2
					set_province_flag = applied_effect
				}
				every_owned_province = {
					limit = { has_province_flag = applied_effect }
					clr_province_flag = applied_effect
				}
			}
		}
	}
	
	ernatvir_superior_materials = {
		icon = mission_colonial
		ai = yes
		position = 2

		required_missions = {
			ernatvir_new_foundries
		}
		trigger = {
			any_owned_province = {
				has_building = weapons
				base_production = 20
				trade_goods = mithril
			}
		}
		effect = {
			add_country_modifier = {
				name = ernatvir_advanced_alloys
				duration = -1
			}
		}
	}
	
	ernatvir_depths_of_trade = {
		icon = mission_conquer_50_development
		ai = yes
		position = 3
		provinces_to_highlight = {
			OR = {
				province_id = 2931
			}
		}
		trigger = {
			2931 = {
				has_dwarven_hold_6 = yes
				owned_by = ROOT
			}
		}
		effect = {
			add_country_modifier = {
				name = ernatvir_revitalized_economy
				duration = 9125
			}
		}
	}
	ernatvir_the_train_hub = {
		icon = new_st_peters_basilica
		ai = yes
		position = 4
		provinces_to_highlight = {
			OR = {
				province_id = 2931
			}
		}
		required_missions = {
			ernatvir_depths_of_trade
		}
		trigger = {
			2931 = {
				has_dwarven_hold_8 = yes
				owned_by = ROOT
			}
			treasury = 10000
			adm_power = 200
			dip_power = 200
			mil_power = 200

			num_of_owned_provinces_with = {
				value = 30
				has_terrain = dwarven_road
				NOT = { has_province_modifier = dwarovar_rail }
			}
		}
		effect = {
			add_treasury = -10000
			add_adm_power = -200
			add_dip_power = -200
			add_mil_power = -200
			2931 = {
				add_permanent_province_modifier = {
					name = ernatvir_constructing_hub
					duration = -1
				}
			}
			custom_tooltip = ernatvir_begin_construction_tooltip
			hidden_effect = {
				2931 = { 
					province_event = { 
						id = ernatvir.1
						days = 1460 
						random = 730
					} 
				}
			}
		}
	}
}
ernatvir_3 = {
	slot = 3
	generic = no
	ai = yes
	potential = {
		tag = I06
	}

	ernatvir_branching_out = {
		icon = mission_settlers_north_america
		ai = yes
		position = 2

		required_missions = {
			ernatvir_rebuilding_lines
		}
		trigger = {
			num_of_owned_provinces_with = {
				value = 16
				has_terrain = dwarven_road
			}
		}
		effect = {
			custom_tooltip = ernatvir_claim_serpentreach_tooltip
			hidden_effect = {
				serpentreach_region = {
					limit = {
						NOT = { is_core = ROOT }
						NOT = { is_permanent_claim = ROOT }
						has_terrain = dwarven_road
					}
					add_permanent_claim = ROOT
				}
			}
			add_country_modifier = {
				name = ernatvir_resettlement_enthusiasm
				duration = 10950
			}
		}
	}

	ernatvir_on_the_road_again = {
		icon = mission_noble_council
		ai = yes
		position = 3

		required_missions = {
			ernatvir_branching_out
		}
		trigger = {
			num_of_owned_provinces_with = {
				value = 25
				has_terrain = dwarven_road
			}
		}
		effect = {
			custom_tooltip = ernatvir_claim_middle_dwarovar_tooltip
			hidden_effect = {
				middle_dwarovar_region = {
					limit = {
						NOT = { is_core = ROOT }
						NOT = { is_permanent_claim = ROOT }
						has_terrain = dwarven_road
					}
					add_permanent_claim = ROOT
				}
			}
			add_country_modifier = {
				name = ernatvir_transportation_boom_early
				duration = 18250
			}
		}
	}

	ernatvir_er-natvir_transcontinental = {
		icon = mission_the_grand_trunk_road_dlh
		ai = yes
		position = 4

		required_missions = {
			ernatvir_on_the_road_again
		}
		trigger = {
			num_of_owned_provinces_with = {
				value = 40
				has_terrain = dwarven_road
				development = 10
			}
		}
		effect = {
			custom_tooltip = ernatvir_claim_jade_mines_tooltip
			hidden_effect = {
				jade_mines_region = {
					limit = {
						NOT = { is_core = ROOT }
						NOT = { is_permanent_claim = ROOT }
						has_terrain = dwarven_road
					}
					add_permanent_claim = ROOT
				}
			}

			custom_tooltip = ernatvir_claim_tree_of_stone_tooltip
			hidden_effect = {
				tree_of_stone_region = {
					limit = {
						NOT = { is_core = ROOT }
						NOT = { is_permanent_claim = ROOT }
						has_terrain = dwarven_road
					}
					add_permanent_claim = ROOT
				}
			}

			add_country_modifier = {
				name = ernatvir_dwarovrod_reclaimers
				duration = 18250
			}
		}
	}
}

ernatvir_4 = {
	slot = 4
	generic = no
	ai = yes
	potential = {
		tag = I06
	}

	ernatvir_rebuilding_lines = {
		icon = mission_defeat_jaunpur
		ai = yes
		position = 1
		required_missions = {}
		trigger = {
			num_of_owned_provinces_with = {
				value = 8
				has_terrain = dwarven_road
			}
		}
		effect = {

			custom_tooltip = ernatvir_claim_west_dwarovar_tooltip
			hidden_effect = {
				west_dwarovar_region = {
					limit = {
						NOT = { is_core = ROOT }
						NOT = { is_permanent_claim = ROOT }
						has_terrain = dwarven_road
					}
					add_permanent_claim = ROOT
				}
			}
			add_country_modifier = {
				name = ernatvir_rebuilders
				duration = 7300
			}
		}
	}

	ernatvir_the_dagrinrod_line = {
		icon = medici_bank_ledgers
		ai = yes
		position = 2

		provinces_to_highlight = {
			OR = {
				province_id = 4104
				province_id = 2876
				province_id = 2988
				province_id = 2989
				province_id = 2990
				province_id = 2991
				province_id = 2992
				province_id = 2993
				province_id = 2994
				province_id = 2996
				province_id = 2997
				province_id = 2998
				province_id = 2999
				province_id = 3000
				province_id = 3001
				province_id = 3002
				province_id = 3003
			}
		}
		required_missions = {
			ernatvir_rebuilding_lines
		}
		trigger = {
			# Could maybe use areas for some of these...

			custom_trigger_tooltip = {
				tooltip = ernatvir_dagrinrod_line_tooltip
				4104 = {
					owned_by = ROOT
					NOT = { has_province_modifier = dwarovar_rail }
				}
				2876 = {
					owned_by = ROOT
					NOT = { has_province_modifier = dwarovar_rail }
				}
				2988 = {
					owned_by = ROOT
					NOT = { has_province_modifier = dwarovar_rail }
				}
				2989 = {
					owned_by = ROOT
					NOT = { has_province_modifier = dwarovar_rail }
				}
				2990 = {
					owned_by = ROOT
					NOT = { has_province_modifier = dwarovar_rail }
				}
				2991 = {
					owned_by = ROOT
					NOT = { has_province_modifier = dwarovar_rail }
				}
				2992 = {
					owned_by = ROOT
					NOT = { has_province_modifier = dwarovar_rail }
				}
				2993 = {
					owned_by = ROOT
					NOT = { has_province_modifier = dwarovar_rail }
				}
				2994 = {
					owned_by = ROOT
					NOT = { has_province_modifier = dwarovar_rail }
				}
				2996 = {
					owned_by = ROOT
					NOT = { has_province_modifier = dwarovar_rail }
				}
				2997 = {
					owned_by = ROOT
					NOT = { has_province_modifier = dwarovar_rail }
				}
				2998 = {
					owned_by = ROOT
					NOT = { has_province_modifier = dwarovar_rail }
				}
				2999 = {
					owned_by = ROOT
					NOT = { has_province_modifier = dwarovar_rail }
				}
				3000 = {
					owned_by = ROOT
					NOT = { has_province_modifier = dwarovar_rail }
				}
				3001 = {
					owned_by = ROOT
					NOT = { has_province_modifier = dwarovar_rail }
				}
				3002 = {
					owned_by = ROOT
					NOT = { has_province_modifier = dwarovar_rail }
				}
				3003 = {
					owned_by = ROOT
					NOT = { has_province_modifier = dwarovar_rail }
				}
			}
		}
		effect = {
			add_country_modifier = {
				name = ernatvir_message_system
				duration = -1
			}
		}
	}

	ernatvir_the_argrod_line = {
		icon = mission_market_place_with_asian_traders
		ai = yes
		position = 3

		provinces_to_highlight = {
			OR = {
				province_id = 2987
				province_id = 2957
				province_id = 2956
				province_id = 2955
				province_id = 2954
				province_id = 2943
				province_id = 2944
				province_id = 2945
				province_id = 2946
				province_id = 2962
				province_id = 4240
				province_id = 2968
				province_id = 2969
				province_id = 2970
				province_id = 2979
				province_id = 2980
				province_id = 2984
				province_id = 2985
				province_id = 4036
				province_id = 4037
				province_id = 4038
			}
		}
		required_missions = {
			ernatvir_the_dagrinrod_line
		}
		trigger = {
			# Could maybe use areas for some of these...

			custom_trigger_tooltip = {
				tooltip = ernatvir_argrod_line_tooltip
				2987 = {
					owned_by = ROOT
					NOT = { has_province_modifier = dwarovar_rail }
				}
				2957 = {
					owned_by = ROOT
					NOT = { has_province_modifier = dwarovar_rail }
				}
				2956 = {
					owned_by = ROOT
					NOT = { has_province_modifier = dwarovar_rail }
				}
				2955 = {
					owned_by = ROOT
					NOT = { has_province_modifier = dwarovar_rail }
				}
				2954 = {
					owned_by = ROOT
					NOT = { has_province_modifier = dwarovar_rail }
				}
				2943 = {
					owned_by = ROOT
					NOT = { has_province_modifier = dwarovar_rail }
				}
				2944 = {
					owned_by = ROOT
					NOT = { has_province_modifier = dwarovar_rail }
				}
				2945 = {
					owned_by = ROOT
					NOT = { has_province_modifier = dwarovar_rail }
				}
				2946 = {
					owned_by = ROOT
					NOT = { has_province_modifier = dwarovar_rail }
				}
				2962 = {
					owned_by = ROOT
					NOT = { has_province_modifier = dwarovar_rail }
				}
				4240 = {
					owned_by = ROOT
					NOT = { has_province_modifier = dwarovar_rail }
				}
				2968 = {
					owned_by = ROOT
					NOT = { has_province_modifier = dwarovar_rail }
				}
				2969 = {
					owned_by = ROOT
					NOT = { has_province_modifier = dwarovar_rail }
				}
				2970 = {
					owned_by = ROOT
					NOT = { has_province_modifier = dwarovar_rail }
				}
				2979 = {
					owned_by = ROOT
					NOT = { has_province_modifier = dwarovar_rail }
				}
				2980 = {
					owned_by = ROOT
					NOT = { has_province_modifier = dwarovar_rail }
				}
				2984 = {
					owned_by = ROOT
					NOT = { has_province_modifier = dwarovar_rail }
				}
				2985 = {
					owned_by = ROOT
					NOT = { has_province_modifier = dwarovar_rail }
				}
				4036 = {
					owned_by = ROOT
					NOT = { has_province_modifier = dwarovar_rail }
				}
				4037 = {
					owned_by = ROOT
					NOT = { has_province_modifier = dwarovar_rail }
				}
				4038 = {
					owned_by = ROOT
					NOT = { has_province_modifier = dwarovar_rail }
				}
			}
		}
		effect = {
			add_country_modifier = {
				name = ernatvir_passenger_line
				duration = -1
			}
		}
	}

	ernatvir_widespread_industry = {
		icon = return_visby_to_the_league
		ai = yes
		position = 4

		required_missions = {
			ernatvir_toll_stations
		}
		trigger = {
			num_of_owned_provinces_with = {
				value = 40
				has_terrain = dwarven_road
				development = 20
			}
		}
		effect = {
			add_country_modifier = {
				name = ernatvir_widespread_industry
				duration = -1
			}
		}
	}

	ernatvir_ernatvir_intercontinental = {
		icon = the_great_school
		ai = yes
		position = 5

		required_missions = {
			ernatvir_widespread_industry
			ernatvir_er-natvir_transcontinental
			ernatvir_widespread_recruitment
		}
		trigger = {
			num_of_owned_provinces_with = {
				value = 110
				has_terrain = dwarven_road
				has_province_modifier = advanced_rail
			}
		}
		effect = {
			add_country_modifier = {
				name = ernatvir_intercontinental
				duration = -1
			}
		}
	}
}
ernatvir_5 = {
	slot = 5
	generic = no
	ai = yes
	potential = {
		tag = I06
	}

	ernatvir_secured_south_junction = {
		icon = fixed_garrison_system
		ai = yes
		position = 1

		provinces_to_highlight = {
			OR = {
				province_id = 2932
				province_id = 2934
			}
		}
		trigger = {
			2932 = {
				owned_by = ROOT
				development = 10
			}
			2934 = {
				owned_by = ROOT
				development = 10
			}
		}
		effect = {
			capital_scope = {
				add_base_tax = 1
				add_base_production = 1
				add_base_manpower = 1
				area = {
					limit = { owned_by = ROOT }
					add_province_modifier = {
						name = "growth_of_capital"
						duration = 9125 #25 years
					}
				}
			}
		}
	}

	ernatvir_southern_tunnels = {
		icon = mission_potosi_silver
		ai = yes
		position = 2

		provinces_to_highlight = {
			OR = {
			    #Tunnels from West Dwarovar to Serpentreach and Middle Dwarovar
				province_id = 4103
				province_id = 2981
				province_id = 2884
				province_id = 2885
			}
		}
		required_missions = {
			ernatvir_secured_south_junction
		}
		trigger = {
			4103 = {
				owned_by = ROOT
				development = 15
			}
			2981 = {
				owned_by = ROOT
				development = 15
			}
			2884 = {
				owned_by = ROOT
				development = 15
			}
			2885 = {
				owned_by = ROOT
				development = 15
			}
		}
		effect = {
			add_country_modifier = {
				name = ernatvir_reopened_tunnels
				duration = 10950
			}
		}
	}

	ernatvir_toll_stations = {
		icon = mission_great_wall
		ai = yes
		position = 3
		required_missions = {
			ernatvir_southern_tunnels
		}
		trigger = {
			num_of_owned_provinces_with = {
				value = 8
				has_terrain = dwarven_road
				fort_level = 2
			}
		}
		effect = {
			random_owned_province = {
				limit = { 
					has_terrain = dwarven_road
					fort_level = 2
					NOT = { 
						has_province_modifier = ernatvir_toll_station 
					}
				}
				add_permanent_province_modifier = {
					name = ernatvir_toll_station
					duration = -1
				}
			}
			random_owned_province = {
				limit = { 
					has_terrain = dwarven_road
					fort_level = 2
					NOT = { 
						has_province_modifier = ernatvir_toll_station 
					}
				}
				add_permanent_province_modifier = {
					name = ernatvir_toll_station
					duration = -1
				}
			}
			random_owned_province = {
				limit = { 
					has_terrain = dwarven_road
					fort_level = 2
					NOT = { 
						has_province_modifier = ernatvir_toll_station 
					}
				}
				add_permanent_province_modifier = {
					name = ernatvir_toll_station
					duration = -1
				}
			}
			random_owned_province = {
				limit = { 
					has_terrain = dwarven_road
					fort_level = 2
					NOT = { 
						has_province_modifier = ernatvir_toll_station 
					}
				}
				add_permanent_province_modifier = {
					name = ernatvir_toll_station
					duration = -1
				}
			}
			random_owned_province = {
				limit = { 
					has_terrain = dwarven_road
					fort_level = 2
					NOT = { 
						has_province_modifier = ernatvir_toll_station 
					}
				}
				add_permanent_province_modifier = {
					name = ernatvir_toll_station
					duration = -1
				}
			}
			random_owned_province = {
				limit = { 
					has_terrain = dwarven_road
					fort_level = 2
					NOT = { 
						has_province_modifier = ernatvir_toll_station 
					}
				}
				add_permanent_province_modifier = {
					name = ernatvir_toll_station
					duration = -1
				}
			}
			random_owned_province = {
				limit = { 
					has_terrain = dwarven_road
					fort_level = 2
					NOT = { 
						has_province_modifier = ernatvir_toll_station 
					}
				}
				add_permanent_province_modifier = {
					name = ernatvir_toll_station
					duration = -1
				}
			}
			random_owned_province = {
				limit = { 
					has_terrain = dwarven_road
					fort_level = 2
					NOT = { 
						has_province_modifier = ernatvir_toll_station 
					}
				}
				add_permanent_province_modifier = {
					name = ernatvir_toll_station
					duration = -1
				}
			}
		}
	}

	ernatvir_widespread_recruitment = {
		icon = mission_alliances
		ai = yes
		position = 4

		required_missions = {
			ernatvir_toll_stations
		}
		trigger = {
			custom_trigger_tooltip = {
				tooltip = ernatvir_provinces_in_areas_tooltip
				calc_true_if = {
					OR = {
						any_owned_province = {
							region = west_dwarovar_region
							development = 60
						}
					}
					OR = {
						any_owned_province = {
							region = middle_dwarovar_region
							development = 60
						}
					}
					OR = {
						any_owned_province = {
							region = serpentreach_region
							development = 60
						}
					}
					OR = {
						any_owned_province = {
							region = serpents_vale_region
							development = 60
						}
					}
					OR = {
						any_owned_province = {
							region = northern_pass_region
							development = 60
						}
					}
					OR = {
						any_owned_province = {
							region = tree_of_stone_region
							development = 60
						}
					}
					OR = {
						any_owned_province = {
							region = jade_mines_region
							development = 60
						}
					}
					amount = 4
				}
			}
		}
		effect = {
			add_country_modifier = {
				name = ernatvir_widespread_options
				duration = -1
			}
		}
	}
}